<svg xmlns="http://www.w3.org/2000/svg" width="154.765" height="55.533" viewBox="0 0 154.765 55.533">
  <g id="Grupo_61" data-name="Grupo 61" transform="translate(-619.928 -965.507)">
    <g id="Grupo_59" data-name="Grupo 59" transform="translate(619.928 965.507)">
      <path id="Trazado_211" data-name="Trazado 211" d="M639.469,990.12H632.15v20.5h-4.9v-20.5h-7.319v-4.37h19.541Z" transform="translate(-619.928 -970.189)" fill="#4a4f54"/>
      <path id="Trazado_212" data-name="Trazado 212" d="M654.539,997.607h-1.351q-4.939,0-4.938,4.264v10.374h-4.8v-19.47h4.618v2.877a5.141,5.141,0,0,1,5.046-2.877h1.421Z" transform="translate(-625.37 -971.814)" fill="#4a4f54"/>
      <path id="Trazado_213" data-name="Trazado 213" d="M671.312,1005.669l4.868.107a7.262,7.262,0,0,1-2.683,4.832,9.28,9.28,0,0,1-5.987,1.812,9.393,9.393,0,0,1-6.84-2.541q-2.611-2.54-2.611-7.337t2.647-7.443a9.212,9.212,0,0,1,6.8-2.647,8.161,8.161,0,0,1,6.609,2.789,10.91,10.91,0,0,1,2.344,7.266v1.031h-13.43a5.889,5.889,0,0,0,1.012,3.447,3.839,3.839,0,0,0,3.394,1.457,4.337,4.337,0,0,0,2.54-.729A3.218,3.218,0,0,0,671.312,1005.669Zm-8.1-5.579h8.172a3.848,3.848,0,0,0-1.208-2.807,4.078,4.078,0,0,0-2.7-.888,4.347,4.347,0,0,0-2.913.995A3.919,3.919,0,0,0,663.211,1000.091Z" transform="translate(-628.748 -971.739)" fill="#4a4f54"/>
      <path id="Trazado_214" data-name="Trazado 214" d="M696.593,1005.669l4.868.107a7.262,7.262,0,0,1-2.683,4.832,9.281,9.281,0,0,1-5.987,1.812,9.393,9.393,0,0,1-6.84-2.541q-2.611-2.54-2.611-7.337t2.647-7.443a9.212,9.212,0,0,1,6.8-2.647,8.161,8.161,0,0,1,6.609,2.789,10.91,10.91,0,0,1,2.345,7.266v1.031h-13.43a5.889,5.889,0,0,0,1.012,3.447,3.839,3.839,0,0,0,3.394,1.457,4.337,4.337,0,0,0,2.54-.729A3.218,3.218,0,0,0,696.593,1005.669Zm-8.1-5.579h8.172a3.849,3.849,0,0,0-1.208-2.807,4.078,4.078,0,0,0-2.7-.888,4.347,4.347,0,0,0-2.914.995A3.921,3.921,0,0,0,688.493,1000.091Z" transform="translate(-634.595 -971.739)" fill="#4a4f54"/>
      <path id="Trazado_215" data-name="Trazado 215" d="M730.3,1010.621H725.43v-10.3H714.913v10.3h-4.9V985.75h4.9v10.126H725.43V985.75H730.3Z" transform="translate(-640.764 -970.189)" fill="#4a4f54"/>
      <path id="Trazado_216" data-name="Trazado 216" d="M745.062,1000.588l6.715-1.03v-.675a2.345,2.345,0,0,0-.746-1.883,4.4,4.4,0,0,0-2.772-.639q-3.7,0-3.7,2.664h-4.618q0-6.573,8.456-6.573,8.172,0,8.172,6.253v10.73a14.089,14.089,0,0,0,.106,1.918l.143.817h-4.9v-1.954a8.16,8.16,0,0,1-6.04,2.2,7.173,7.173,0,0,1-4.85-1.634,5.593,5.593,0,0,1-1.9-4.477Q739.128,1001.585,745.062,1000.588Zm6.715,3.66v-1.03l-1.883.284-1.51.248-1.51.249a4.532,4.532,0,0,0-2.061.746,1.957,1.957,0,0,0-.746,1.6,2.164,2.164,0,0,0,.089.622,3.75,3.75,0,0,0,.337.746,1.72,1.72,0,0,0,.889.71,4.066,4.066,0,0,0,1.563.267,5,5,0,0,0,3.7-1.314A4.225,4.225,0,0,0,751.777,1004.248Z" transform="translate(-647.499 -971.739)" fill="#4a4f54"/>
      <path id="Trazado_217" data-name="Trazado 217" d="M782.212,1012.246h-4.69V1010.4a7.537,7.537,0,0,1-5.578,2.1,6.266,6.266,0,0,1-4.867-1.9,6.755,6.755,0,0,1-1.741-4.743V992.776h4.8v12.151q0,3.66,3.34,3.66a3.6,3.6,0,0,0,2.949-1.208,4.758,4.758,0,0,0,.995-3.126V992.776h4.8Z" transform="translate(-653.56 -971.814)" fill="#4a4f54"/>
      <path id="Trazado_218" data-name="Trazado 218" d="M806.271,998.421h-4.726q0-2.274-3.411-2.274a5.184,5.184,0,0,0-2.2.444,1.543,1.543,0,0,0-.96,1.51,1.579,1.579,0,0,0,1.351,1.564q.427.142,3.375.586a14.564,14.564,0,0,1,4.37,1.191,4.819,4.819,0,0,1,2.736,4.548q0,6.431-8.7,6.431a13.464,13.464,0,0,1-3.66-.444,7.421,7.421,0,0,1-2.434-1.1,5.033,5.033,0,0,1-1.385-1.582,6.066,6.066,0,0,1-.676-1.687,7.9,7.9,0,0,1-.16-1.617h4.726q0,2.63,3.837,2.629,3.588,0,3.589-2.167a1.454,1.454,0,0,0-.284-.906,1.989,1.989,0,0,0-.977-.6,8.345,8.345,0,0,0-1.226-.319q-.533-.089-1.6-.231a19.918,19.918,0,0,1-3.411-.64q-4.263-1.243-4.263-5.329a5.029,5.029,0,0,1,2.309-4.388,10.022,10.022,0,0,1,5.791-1.581,11.982,11.982,0,0,1,3.624.5,6.963,6.963,0,0,1,2.362,1.172,5.22,5.22,0,0,1,1.279,1.6,6.265,6.265,0,0,1,.6,1.527A5.811,5.811,0,0,1,806.271,998.421Z" transform="translate(-659.215 -971.739)" fill="#4a4f54"/>
      <path id="Trazado_219" data-name="Trazado 219" d="M819.679,1016.522H814.42v-5.258h5.259Z" transform="translate(-664.913 -976.09)" fill="#4a4f54"/>
      <path id="Trazado_220" data-name="Trazado 220" d="M717.44,965.507h5.173l7.554,13.229h-4.8l-5.336-9.125-5.169,9.125H709.97Zm-2.582,13.229H709.97" transform="translate(-640.754 -965.507)" fill="#00e494"/>
    </g>
    <g id="Grupo_60" data-name="Grupo 60" transform="translate(649.542 1014.449)">
      <path id="Trazado_221" data-name="Trazado 221" d="M658.452,1029.175h1.823v6.591h-1.823v-.635h1.085v-5.321h-1.085Z" transform="translate(-658.452 -1029.175)" fill="#4a4f54"/>
      <path id="Trazado_222" data-name="Trazado 222" d="M672.344,1031.018h-.826a1.053,1.053,0,0,0-.262-.646,1.1,1.1,0,0,0-.816-.24,1.316,1.316,0,0,0-.8.2.675.675,0,0,0-.266.571.578.578,0,0,0,.281.524,1.924,1.924,0,0,0,.576.2c.255.056.5.108.738.154a4.206,4.206,0,0,1,.7.2,1.2,1.2,0,0,1,.554.424,1.237,1.237,0,0,1,.211.742,1.467,1.467,0,0,1-.52,1.188,2.319,2.319,0,0,1-1.524.435,2.245,2.245,0,0,1-1.373-.405,1.454,1.454,0,0,1-.56-1.219h.841q.037.922,1.166.923a1.6,1.6,0,0,0,.8-.191.667.667,0,0,0,.34-.627.589.589,0,0,0-.377-.59,5.594,5.594,0,0,0-.926-.233,4.728,4.728,0,0,1-1.015-.284,1.218,1.218,0,0,1-.738-1.218,1.278,1.278,0,0,1,.287-.837,1.586,1.586,0,0,1,.7-.5,2.635,2.635,0,0,1,.893-.148,2.233,2.233,0,0,1,1.381.391A1.452,1.452,0,0,1,672.344,1031.018Z" transform="translate(-660.764 -1029.239)" fill="#4a4f54"/>
      <path id="Trazado_223" data-name="Trazado 223" d="M677.67,1029.559v3.27a1.283,1.283,0,0,0,.324.94,1.2,1.2,0,0,0,.893.329,1.213,1.213,0,0,0,.9-.321,1.273,1.273,0,0,0,.317-.934v-3.284h.783v3.262a1.889,1.889,0,0,1-.557,1.49,2.123,2.123,0,0,1-1.465.495,2.072,2.072,0,0,1-1.454-.505,1.953,1.953,0,0,1-.554-1.517v-3.225Z" transform="translate(-662.709 -1029.264)" fill="#4a4f54"/>
      <path id="Trazado_224" data-name="Trazado 224" d="M689.281,1031.018h-.826a1.053,1.053,0,0,0-.262-.646,1.1,1.1,0,0,0-.816-.24,1.317,1.317,0,0,0-.8.2.675.675,0,0,0-.266.571.578.578,0,0,0,.281.524,1.924,1.924,0,0,0,.576.2c.256.056.5.108.738.154a4.2,4.2,0,0,1,.7.2,1.2,1.2,0,0,1,.554.424,1.236,1.236,0,0,1,.211.742,1.467,1.467,0,0,1-.52,1.188,2.319,2.319,0,0,1-1.524.435,2.245,2.245,0,0,1-1.373-.405,1.458,1.458,0,0,1-.56-1.219h.841q.037.922,1.166.923a1.6,1.6,0,0,0,.8-.191.666.666,0,0,0,.339-.627.589.589,0,0,0-.377-.59,5.6,5.6,0,0,0-.926-.233,4.727,4.727,0,0,1-1.015-.284,1.218,1.218,0,0,1-.738-1.218,1.274,1.274,0,0,1,.288-.837,1.58,1.58,0,0,1,.7-.5,2.635,2.635,0,0,1,.892-.148,2.233,2.233,0,0,1,1.38.391A1.453,1.453,0,0,1,689.281,1031.018Z" transform="translate(-664.681 -1029.239)" fill="#4a4f54"/>
      <path id="Trazado_225" data-name="Trazado 225" d="M697.293,1030.282h-1.55v4.443h-.812v-4.443h-1.55v-.723h3.912Z" transform="translate(-666.531 -1029.264)" fill="#4a4f54"/>
      <path id="Trazado_226" data-name="Trazado 226" d="M703.673,1033.463H701.7l-.369,1.262h-.856l1.653-5.166h1.144l1.683,5.166h-.878Zm-.192-.7-.8-2.569-.783,2.569Z" transform="translate(-668.172 -1029.264)" fill="#4a4f54"/>
      <path id="Trazado_227" data-name="Trazado 227" d="M710.228,1029.559v5.166h-.812v-5.166Z" transform="translate(-670.24 -1029.264)" fill="#4a4f54"/>
      <path id="Trazado_228" data-name="Trazado 228" d="M718.351,1034.725H717.3l-2.339-4.008v4.008h-.8v-5.166H715.2l2.354,4.066v-4.066h.8Z" transform="translate(-671.337 -1029.264)" fill="#4a4f54"/>
      <path id="Trazado_229" data-name="Trazado 229" d="M725.919,1033.463h-1.97l-.37,1.262h-.856l1.653-5.166h1.145l1.683,5.166h-.879Zm-.191-.7-.8-2.569-.782,2.569Z" transform="translate(-673.318 -1029.264)" fill="#4a4f54"/>
      <path id="Trazado_230" data-name="Trazado 230" d="M731.663,1029.559h2.221a1.867,1.867,0,0,1,1.089.314,1.1,1.1,0,0,1,.454.978,1.181,1.181,0,0,1-.228.745.441.441,0,1,0,.125.823,1.148,1.148,0,0,1,.288.831,1.438,1.438,0,0,1-.432,1.029,1.612,1.612,0,0,1-1.215.447h-2.3Zm.812,2.177h1.306a.9.9,0,0,0,.609-.206.71.71,0,0,0,.241-.569.638.638,0,0,0-.222-.535.944.944,0,0,0-.6-.174h-1.336Zm0,2.3h1.358a1.029,1.029,0,0,0,.708-.218.783.783,0,0,0,.244-.617.686.686,0,0,0-.266-.575,1.137,1.137,0,0,0-.716-.207h-1.328Z" transform="translate(-675.385 -1029.264)" fill="#4a4f54"/>
      <path id="Trazado_231" data-name="Trazado 231" d="M740.963,1029.559v5.166h-.812v-5.166Z" transform="translate(-677.349 -1029.264)" fill="#4a4f54"/>
      <path id="Trazado_232" data-name="Trazado 232" d="M748.179,1034.725h-3.285v-5.166h.812V1034h2.473Z" transform="translate(-678.446 -1029.264)" fill="#4a4f54"/>
      <path id="Trazado_233" data-name="Trazado 233" d="M753.474,1029.559v5.166h-.812v-5.166Z" transform="translate(-680.242 -1029.264)" fill="#4a4f54"/>
      <path id="Trazado_234" data-name="Trazado 234" d="M760.884,1030.282h-1.55v4.443h-.812v-4.443h-1.55v-.723h3.912Z" transform="translate(-681.239 -1029.264)" fill="#4a4f54"/>
      <path id="Trazado_235" data-name="Trazado 235" d="M764.836,1029.559h.893l1.262,2.524,1.284-2.524h.863l-1.757,3.351v1.816h-.812v-1.816Z" transform="translate(-683.058 -1029.264)" fill="#4a4f54"/>
      <path id="Trazado_236" data-name="Trazado 236" d="M777.865,1029.175h1.823v.635H778.6v5.321h1.085v.635h-1.823Z" transform="translate(-686.072 -1029.175)" fill="#4a4f54"/>
    </g>
  </g>
</svg>
