<svg xmlns="http://www.w3.org/2000/svg" width="95.045" height="108.605" viewBox="0 0 95.045 108.605">
  <g id="Grupo_96" data-name="Grupo 96" transform="translate(0 0)">
    <g id="Grupo_174" data-name="Grupo 174" transform="translate(1.121 61.562)">
      <path id="Trazado_396" data-name="Trazado 396" d="M550.012,448.341a52.283,52.283,0,0,0,10.343-1.154c.336-.116.5.538-.21.73a55.914,55.914,0,0,1-10.511,1.27l-3.477,7.676c-.21.5-2.228.5-1.892-.192l3.35-7.405c-1.724.077-3.363.077-4.751.077-2.48,0-4.751-.077-6.811-.192-1.219,1.654-2.107,3.227-3.026,4.385-3.309,4.168-8.019,4.334-12.327,2.647a8.929,8.929,0,0,1-4.858-4.341,5.768,5.768,0,0,1-.589-2.692,2.6,2.6,0,0,1,1.676-2.385,8.492,8.492,0,0,1,3.528-.461c4.327.154,9.194.941,14.449,1.594,9.809-14.446,16.3-17.149,19.253-16.734,1.63.229,2.077,1.249.13,6.687C554.287,437.849,551.4,445.375,550.012,448.341Zm-18.089,4.276L534.3,449c-4.851-.366-9.627-1.387-14.477-1.688-1.127-.07-2.426-.1-3.227.757-1.151,1.228-.1,3.248.819,4.275a12.28,12.28,0,0,0,5.568,3.505c2.783.843,5.7.437,7.561-1.567A13.116,13.116,0,0,0,531.923,452.617Zm20.9-15.36c1.83-4.106,2.264-5.363,1.338-5.363-2.943,0-10.663,6.985-17.348,16.216a66.036,66.036,0,0,0,6.937.346c1.135,0,2.648,0,4.246-.038Z" transform="translate(-515.004 -426.867)" fill="#b3b3b3"/>
      <path id="Trazado_397" data-name="Trazado 397" d="M631.083,461.2l1.373-2.99c3.409-7.5,6.819-9.4,7.956-9.4.757,0,.853.477.853.867,0,1.82-2.937,6.369-6.962,9.056l-1.516,3.292c-.8,1.734-.142,2.427.757,2.427,4.026,0,10.135-3.943,14.729-7.756.094-.086.331-.043.474.087.19.174.142.346,0,.433-4.688,3.9-11.035,7.929-15.2,7.929C630.325,465.139,630.04,463.535,631.083,461.2Zm9.377-11.439a.259.259,0,0,0-.284-.3c-.616,0-2.037,1.04-5.3,8.016C637.9,455.044,640.459,451.1,640.459,449.758Z" transform="translate(-587.64 -438.005)" fill="#b3b3b3"/>
      <path id="Trazado_398" data-name="Trazado 398" d="M671.791,458.19l1.941-4.333c3.5-7.713,6.914-9.619,8.051-9.619.757,0,.852.477.852.867,0,1.733-3.078,4.9-6.393,7.8l-2.841,6.2c-.852,1.82-.474,2.6.237,2.6,1.562,0,3.551-3.033,3.551-4.68-.852-.65-.616-1.689.379-1.689.474,0,1.278.52,1.421,1.993a11.957,11.957,0,0,0,5.066,1.126,21.2,21.2,0,0,0,5.3-.479c.19-.043.284.173.284.3a.361.361,0,0,1-.284.39,19.792,19.792,0,0,1-5.3.478,13.758,13.758,0,0,1-5.114-1.04,5.684,5.684,0,0,1-5.4,4.16C671.128,462.263,670.608,460.79,671.791,458.19Zm10.04-13a.258.258,0,0,0-.284-.3c-.569,0-1.942,1.083-4.594,6.456C679.511,448.962,681.831,446.405,681.831,445.192Z" transform="translate(-613.243 -435.129)" fill="#b3b3b3"/>
      <path id="Trazado_399" data-name="Trazado 399" d="M715.314,479.589c0-2.253,2.7-5.373,5.541-5.373a3.222,3.222,0,0,1,2.178.78,2.779,2.779,0,0,1,.379-.043c.994,0,.688.737.4,1.344l-1.391,2.47a1.149,1.149,0,0,0,.026,1.3c.421.436,1.176.3,1.728.207a13.618,13.618,0,0,0,1.625-.406,35.822,35.822,0,0,0,3.732-1.409c1.119-.484,2.223-1,3.3-1.555.221-.114.45-.222.661-.35.143-.086.284.044.332.174a.28.28,0,0,1-.142.347c-4.878,2.816-9.282,4.073-10.656,4.073-2.272,0-2.841-1.3-2.32-2.47-1.184,1.3-2.558,2.47-3.646,2.47C715.93,481.148,715.314,480.585,715.314,479.589Zm6.961-4.073a1.6,1.6,0,0,0-1.586-.666c-1.889.167-4.626,3.3-3.343,4.692C718.792,481.108,721.851,476.394,722.275,475.516Z" transform="translate(-641.045 -454.015)" fill="#b3b3b3"/>
      <path id="Trazado_400" data-name="Trazado 400" d="M514.595,428.024a3.649,3.649,0,0,1,3.34-3.056,1.957,1.957,0,0,1,1.025.271l2.4-4.807c.3-.616.619-.813.888-.813.459,0,.243.567.082.912L519.2,427.36c-.4.862.081,1.084.458,1.084.944,0,4.8-1.281,6.924-2.021a.18.18,0,0,1,.216.124.177.177,0,0,1-.055.221c-2.37.863-6.249,2.145-7.327,2.145-1.7,0-1.644-1.011-1.294-1.874-.781.912-1.778,1.874-2.532,1.874C514.946,428.912,514.595,428.592,514.595,428.024Zm4.1-2.316a.728.728,0,0,0-.62-.345c-1.078,0-2.182,1.774-2.182,2.539,0,.27.108.27.242.27C516.643,428.172,518.151,426.619,518.69,425.708Z" transform="translate(-514.595 -419.62)" fill="#b3b3b3"/>
      <path id="Trazado_401" data-name="Trazado 401" d="M543.936,436.663a3,3,0,0,1,3.234-2.588c.215,0,.888.049.888.591,0,.814-1.589,1.183-2.64,1.257a2.6,2.6,0,0,0-.269.936c0,.345.242.69.862.69,1.428,0,3.879-1.06,5.792-2.144.082-.05.162.025.189.1a.158.158,0,0,1-.081.2c-1.994,1.208-4.607,2.317-6.2,2.317C544.421,438.019,543.936,437.451,543.936,436.663Zm3.584-2c0-.173-.135-.271-.35-.271a1.891,1.891,0,0,0-1.509,1.06C546.549,435.455,547.52,435.209,547.52,434.666Z" transform="translate(-533.079 -428.726)" fill="#b3b3b3"/>
    </g>
    <g id="Grupo_176" data-name="Grupo 176" transform="translate(0 0)">
      <path id="Trazado_402" data-name="Trazado 402" d="M604.706,313.355l.653-.523.219-.233a.152.152,0,0,0,.034-.007l1-.286a.526.526,0,0,0-.267-.222c-.511-.121-1.024-.225-1.536-.336l-.36-.024-.113-.038a3.431,3.431,0,0,0-.505-.068c-.976.011-1.951.041-2.927.043a1.577,1.577,0,0,1-.507-.171c-.191-.073-.381-.153-.572-.23a.484.484,0,0,0-.117-.055c-.366-.063-.732-.131-1.1-.179a15.487,15.487,0,0,0-1.877-.216c-1.028-.009-2.057.083-3.086.1-.854.011-1.708-.028-2.563-.045h-.144l-.111,0h-.4l-.221-.055h-.218c-.223-.022-.446-.051-.669-.064-.478-.026-.956-.044-1.434-.063-.155-.006-.311.008-.466-.005-.579-.05-1.157-.125-1.737-.159-.684-.04-1.369-.043-2.053-.068-.29-.01-.58-.049-.87-.05-.867,0-1.735.006-2.6.01l-.471-.008-.185,0h-.543l-.44.034c-.736.041-1.471.09-2.207.122-.4.018-.808.008-1.212.011-.226-.024-.454-.034-.679-.076s-.422-.112-.632-.171c-.06-.066-.118-.18-.182-.188-.254-.031-.51-.02-.765-.042-.6-.051-1.191-.111-1.786-.167-.662-.058-1.324-.114-1.986-.174-.4-.036-.806-.082-1.209-.115-.777-.063-1.554-.118-2.331-.178-.184-.014-.368-.036-.552-.055-.587-.021-1.174-.04-1.762-.063-.423-.016-.845-.046-1.268-.054-.545-.01-1.09,0-1.636,0a.443.443,0,0,0-.139.053h-.259l-.1,0c-.026-.008-.052-.021-.078-.031a.2.2,0,0,0-.077-.017q-.535.02-1.07.054a14.623,14.623,0,0,0-2.536.105,4.256,4.256,0,0,1-.9.012q-1.19.026-2.38.061c-.511.015-1.023.038-1.534.055-.605.02-1.21.057-1.816.054-1.055,0-2.109-.034-3.163-.054a.859.859,0,0,0-.207-.055q-2.564-.033-5.129-.059c-.552-.006-1.1,0-1.656,0a5.745,5.745,0,0,0-.614-.053,4.968,4.968,0,0,1-1.606-.182.368.368,0,0,0-.1-.055c-.448-.082-.9-.169-1.346-.239-.647-.1-1.294-.234-1.943-.274-.763-.047-1.528-.017-2.293-.006a2.2,2.2,0,0,0-.474.114,5.289,5.289,0,0,1-.748.166c-.369.03-.74.011-1.11.013-.706,0-1.412-.006-2.118,0a.318.318,0,0,0-.106.023c-.035.012-.071.027-.106.038l-2.231-.125c-.03,0-.06,0-.091-.008l-1.608-.155-.075-.008-.726-.077-.222-.037-.217-.009c-.031-.009-.063-.021-.095-.031a.467.467,0,0,0-.1-.021c-.271-.023-.541-.049-.811-.056-.856-.021-1.712-.034-2.569-.05l-.871.1-.075,0-1.752.1c-.1,0-.2,0-.294-.006a1.171,1.171,0,0,0-.292.026c-.312.076-.656.05-.851.588a3.679,3.679,0,0,1-.148.343c-.053.111-.108.219-.16.331-.1.04-.2.085-.3.128a2.267,2.267,0,0,1-.306.107c-.375.095-.753.151-1.129.239-.242.057-.268.144-.171.5.073.264.155.521.226.785.1.368.186.747.294,1.109.1.337.209.671.336.984.151.37.323.72.49,1.073a10.1,10.1,0,0,0,.537,1.085c.2.306.475.482.657.8.252.445.528.672.9.588l.44.215.108.012c.175.06.352.111.526.181a3.917,3.917,0,0,0,1.329.4c.128.118.25.256.379.369a.8.8,0,0,0,.426.218c.3.034.605.1.908.157l.294.057h.181l.51,0,.254-.005.059.034a.217.217,0,0,0,.06.025c.3.061.6.117.9.175.072.01.144.025.215.037a1.182,1.182,0,0,0,.215.02,9.485,9.485,0,0,0,.992-.06,4.312,4.312,0,0,0,.618-.171c.233-.038.467-.073.7-.115.377-.068.753-.134,1.129-.211.579-.12,1.158-.248,1.737-.373.105.01.211.023.316.034s.211.021.316.025c.623.025,1.247.039,1.871.063.144.006.288.039.432.056.355.04.71.077,1.065.117a1.969,1.969,0,0,1,.27.037,5.666,5.666,0,0,0,1.19.33c.832.024,1.662.16,2.494.2.39.02.782-.092,1.174-.1.465-.009.931.027,1.4.053a7.32,7.32,0,0,1,1.7.1,4.25,4.25,0,0,0,.9.038c.4.028.8.086,1.2.11.695.041,1.391.08,2.086.093.429.008.858-.033,1.288-.053.4-.018.8-.045,1.2-.056.893-.024,1.787-.053,2.68-.055q1.017,0,2.034.058c.6.035,1.2.126,1.807.163a10.084,10.084,0,0,1,1.038-.025,1.732,1.732,0,0,0,.22.04c.25.012.5,0,.754,0,.2,0,.4,0,.595,0a1.781,1.781,0,0,0,.524-.086c.326-.085.66-.143.984-.239.225-.067.449-.057.677-.119.183-.05.367-.083.544-.14a6.735,6.735,0,0,1,1.535-.276c.532-.044,1.02-.255,1.544-.34a10.808,10.808,0,0,1,1.756-.145,14.285,14.285,0,0,1,2.26.1c.728.115,1.476.238,2.191.4a8.2,8.2,0,0,0,1.854.1c.643,0,1.267.02,1.906.075.765.066,1.563-.035,2.331-.034.349,0,.7.09,1.046.1.775.033,1.55.048,2.326.06.217,0,.434-.041.651-.048.4-.013.8.011,1.192-.027.468-.045.934-.154,1.4-.208.346-.04.7.087,1.042-.06a.539.539,0,0,1,.286-.056,6.459,6.459,0,0,0,2.031-.331c.636-.109,1.271-.182,1.908-.259.257-.031.512-.1.768-.151a3.359,3.359,0,0,1,.413-.075c.405-.027.81-.044,1.215-.06.569-.022,1.138-.055,1.707-.055s1.15.051,1.725.049c.709,0,1.417-.011,2.125-.065a5.048,5.048,0,0,0,1-.256,3.546,3.546,0,0,1,.51-.189c.619-.076,1.24-.137,1.861-.178.557-.037,1.114-.042,1.671-.062.512-.019,1.025-.02,1.536-.068a.929.929,0,0,0,.7-.325.963.963,0,0,1,.82-.372,1.845,1.845,0,0,0,.516-.122,3.323,3.323,0,0,1,.529-.154,1.461,1.461,0,0,0,1.043-.36.438.438,0,0,1,.242-.107,3.787,3.787,0,0,0,.557-.085,8.207,8.207,0,0,0,1.117-.463,2.56,2.56,0,0,0,.482-.46c-.006-.036-.012-.072-.019-.108-.408-.4-.865-.266-1.324-.255l.167-.316Z" transform="translate(-511.566 -288.009)" fill="#b3b3b3"/>
      <g id="Grupo_175" data-name="Grupo 175" transform="translate(0.835 0)">
        <path id="Trazado_403" data-name="Trazado 403" d="M607,366.194a.863.863,0,0,0-.266-.5,2.825,2.825,0,0,0-.663-.238,3.53,3.53,0,0,0-.752-.2c-.48-.018-.957.064-1.437.031-.553-.037-1.107-.166-1.661-.232-.518-.062-1.036-.095-1.555-.136-.593-.048-1.187-.112-1.779-.131-.478-.016-.957-.023-1.435-.029s-.957-.009-1.435-.016l-.107,0-.111,0c-.43-.011-.861-.028-1.291-.031-.258,0-.516.026-.774.029-.818.011-1.636.005-2.454.03-.457.014-.911.1-1.367.112-1.054.03-2.108.047-3.163.043-.451,0-.9-.061-1.355-.106-.332-.033-.663-.082-.995-.126-.587-.077-1.175-.181-1.761-.225-.558-.041-1.115-.017-1.673-.027-.354-.006-.709-.023-1.063-.035-1.084-.036-2.168-.077-3.252-.106-.223-.006-.445.049-.669.038-.423-.021-.847-.07-1.27-.108-.133,0-.266,0-.4,0q-1.186-.064-2.373-.132c-.2-.02-.4-.048-.6-.072a4.469,4.469,0,0,0-.6-.037,9.782,9.782,0,0,1-2.362-.216,12.731,12.731,0,0,0-1.981-.245c-.607-.041-1.213-.023-1.818-.015-.51.007-1.019.032-1.528.06a2.689,2.689,0,0,1-.766.061c-.541-.127-1.065.092-1.609-.019a10.181,10.181,0,0,0-1.89-.041c-.309-.005-.618-.023-.926-.051-.52-.048-1.04-.113-1.561-.164-.273-.027-.545-.028-.818-.059-.629-.071-1.259-.156-1.888-.227-.058-.006-.114.054-.171.083-.064-.033-.128-.092-.191-.1-.3-.017-.6,0-.9-.03-.709-.064-1.417-.147-2.126-.22-.079-.008-.158,0-.237,0-.7-.018-1.4-.071-2.091-.047-.592.021-1.179.142-1.77.2-.984.1-1.968.175-2.951.276-.548.057-1.094.145-1.641.218-.6.08-1.2.149-1.8.243a2.443,2.443,0,0,1-1.449-.037,1.256,1.256,0,0,0-1.33.236,1.453,1.453,0,0,1-.961.165c-.373-.011-.752-.169-1.124-.163-.452.008-.9.154-1.349.177a7.535,7.535,0,0,1-1-.108c-.861-.074-1.721-.138-2.582-.205-.079-.006-.158,0-.237,0-.716-.047-1.432-.122-2.146-.135a11.256,11.256,0,0,0-1.376.12c-.246.026-.492.073-.739.1-.689.081-1.378.168-2.069.232-.235.021-.473-.034-.709-.029-.745.017-1.489.078-2.235.057-.379-.01-.763-.194-1.144-.239a13.4,13.4,0,0,0-2.036-.152,12.052,12.052,0,0,0-1.906.3,4.142,4.142,0,0,0-.7.274c-.242.111-.486.211-.725.343a.491.491,0,0,0-.081.289c0,.532.022,1.066.035,1.6.03.171.044.387.081.54a.5.5,0,0,0,.046.128,9.4,9.4,0,0,0,.626.881l.119.613-.252.493c-.038.046-.091.064-.128.113a.371.371,0,0,0-.034.292,3.244,3.244,0,0,0,1.143,1.927l.45.3a.136.136,0,0,0,.035,0,1.892,1.892,0,0,0,.322.494,1.087,1.087,0,0,0,.371.263l.232.3c.246.073.491.152.737.218a3.875,3.875,0,0,0,.488.1c.645.088,1.29.169,1.936.254.4.14.8.286,1.207.418a3.5,3.5,0,0,0,.814.225,14.809,14.809,0,0,0,1.69.018c.786-.035,1.57-.111,2.355-.171a.291.291,0,0,0,.071-.024l.185-.07.361-.012,1.272-.13h.069c.273-.034.545-.084.817-.124a5.03,5.03,0,0,1,.819-.066,16.933,16.933,0,0,1,1.792.235c.5.064,1,.11,1.5.164a2.122,2.122,0,0,0,.375.067c.809,0,1.619-.007,2.428-.014a3.8,3.8,0,0,1,.52-.006c.35.045.7.156,1.051.167.587.018,1.172-.018,1.758-.036.216-.006.431-.043.647-.033.147.007.293.022.441.04s.294.037.441.053l3.062-.03c.154.008.309.022.464.032a4.022,4.022,0,0,0,.463.009c.542-.027,1.081-.1,1.623-.131.295-.016.594.048.889.023s.571-.139.858-.172c.6-.067,1.194-.1,1.792-.155a.545.545,0,0,0,.09-.017c.462-.118.924-.243,1.386-.354.327-.079.656-.135.983-.211.511-.117,1.02-.26,1.533-.359.371-.071.746-.08,1.119-.13.48-.064.959-.144,1.439-.213.136-.019.273-.009.408-.036a3.091,3.091,0,0,1,.676-.155c.7.026,1.392.1,2.088.151.206.016.412.029.618.064.441.076.882.186,1.323.243.46.06.92.081,1.38.107.624.035,1.249.1,1.87.077s1.26-.2,1.894-.206c1.034-.011,2.07.043,3.106.11a11.788,11.788,0,0,1,1.25.243q.541.1,1.083.155a5.745,5.745,0,0,1,1.433.191,1.905,1.905,0,0,0,.545.154,6.569,6.569,0,0,0,1.924-.1c.722-.159,1.422-.374,2.143-.531a7.566,7.566,0,0,0,1.272-.295c.3-.125.572-.28.881-.389.418-.147.853-.3,1.285-.406.448-.114.923-.1,1.378-.2a11.58,11.58,0,0,1,2.109-.3c.386-.009.751-.11,1.137-.107a3.574,3.574,0,0,0,.623-.02c.883-.145,1.766-.272,2.665-.371a16.155,16.155,0,0,0,2.884-.668,14.088,14.088,0,0,1,4.066-.552h1.14c.476,0,.925-.074,1.4-.1.628-.035,1.237-.11,1.869-.1a6.66,6.66,0,0,0,1.663-.341c.55-.134,1.094-.282,1.632-.464a7.525,7.525,0,0,0,1.868-.733,4.359,4.359,0,0,0,.513-.484,1.9,1.9,0,0,0,.312-.5C606.921,366.646,607.058,366.512,607,366.194Z" transform="translate(-513.823 -322.241)" fill="#b3b3b3"/>
        <path id="Trazado_404" data-name="Trazado 404" d="M606.075,254.775a.715.715,0,0,0-.044-.139c-.122-.276-.738-.37-1.015-.369h-.073l-.258-.01-.591.005h-.182l-.077.042-.217.009-.077,0h-.291c-.3.076-.593.172-.891.223-.434.075-.87.132-1.306.17s-.849.039-1.274.056h-.07l-.409,0c-.347.014-.694.025-1.041.043a2.156,2.156,0,0,0-.692.065,4.19,4.19,0,0,1-1.617.146.512.512,0,0,0-.172-.058c-.207.009-.414.047-.621.047-.594,0-1.188-.012-1.783-.019l-.146-.006-.222-.057c-.513-.043-1.026-.092-1.54-.126-.357-.023-.716-.023-1.074-.038-.64-.027-1.28-.061-1.921-.086-.229-.009-.458,0-.688,0-.3-.028-.607-.078-.911-.079-.861,0-1.722.017-2.583.028l-1.21-.022c-.124,0-.249,0-.373,0l-1.877.039h-.111c-.222,0-.445-.018-.667-.013-.336.007-.672.05-1.006.035-.473-.021-.944-.082-1.416-.127l-.223.007-.108-.005h-.112l-.366-.007h-.26l-.844-.013-.111.042a.58.58,0,0,0-.159-.051c-.818-.011-1.637-.019-2.455-.028h-.147l-.954-.071-2.1-.034c-.158-.023-.315-.056-.473-.068-.4-.03-.791-.065-1.187-.074-.831-.019-1.663-.023-2.494-.033l-.077,0h-.107l-.077,0-.07,0c-.426-.007-.851-.021-1.276-.021q-1.641,0-3.282.019c-.543.006-1.087.03-1.63.046l-.069.006-.7.05-.4,0-.151.039c-.511.015-1.023.034-1.534.043-.347.006-.695,0-1.042,0l-.075,0-.072,0-.112,0-.109,0-.259,0-.108,0-.848.038h-.478l-.112,0-.109,0h-.075c-.384.011-.768.039-1.151.031-.708-.014-1.415-.048-2.122-.074l-.112,0c-.092-.007-.183-.017-.275-.02-1.881-.044-3.762-.084-5.643-.133-.686-.018-1.371-.054-2.056-.09-.321-.017-.642-.044-.962-.079s-.631-.093-.947-.128c-.456-.05-.913-.089-1.37-.133l-.112-.007-.073-.007-.073-.049-.072,0-.149.033-.108-.007-.112-.037-.44-.008-.33-.058h-.185c-.033.11-.078.159-.127.173.05-.014.095-.063.127-.173l-.664-.017-.146,0-.073-.009-.219-.048-1.474-.025c-.538-.011-1.076-.008-1.614-.036-.561-.03-1.122-.106-1.683-.131a12.768,12.768,0,0,0-1.691-.008,8.488,8.488,0,0,1-2.266.15,14.891,14.891,0,0,0-2.1-.218,16.755,16.755,0,0,0-3.376.085c-.027.026-.055.062-.082.092.027-.03.055-.066.082-.092-.623.026-1.245.041-1.868.081a19.643,19.643,0,0,0-1.994.176,6.371,6.371,0,0,0-1.382.448,1.012,1.012,0,0,0-.51.823c-.038.235-.038.488-.055.732l-.016.24-.158.489-.1.071-.431.144c-.119.039-.161.144-.1.324a5.106,5.106,0,0,0,.325.841c.244.4.524.749.789,1.118.06.1.125.185.18.288s.1.23-.04.271a1.415,1.415,0,0,0-.332.152A1.14,1.14,0,0,0,515.41,261a1.006,1.006,0,0,1,.137.244,1.716,1.716,0,0,0,.793.909l.329.183a1.909,1.909,0,0,0,1.1.322h.107l.114,0a1.011,1.011,0,0,0,.215.063c.457.032.914.081,1.372.078a6.579,6.579,0,0,1,2.452.345,4.705,4.705,0,0,0,2.022.4h.069l.154,0,.067,0h.228c.3-.053.592-.1.887-.158.32-.058.641-.141.962-.169a4.067,4.067,0,0,1,.691.048l.292.022.111.044a2.486,2.486,0,0,0,.362.073c.648.037,1.3.077,1.944.092a11.153,11.153,0,0,0,3.278-.209,5.525,5.525,0,0,1,1.818-.287l.259,0,1.331.09c.2.014.4.035.6.04.146,0,.293-.025.439-.019.3.014.6.058.9.061.284,0,.568-.045.851-.046.585,0,1.171.015,1.756.021q.777.009,1.554.013c.055,0,.11-.017.164-.016q.649.011,1.3.025c.211.005.422.017.633.026l.295.053h.108l1.1.092.075.044.329.012.259,0,.293,0,1.213.017c.55.03,1.1.065,1.65.09.764.035,1.529.077,2.294.089.654.01,1.31-.032,1.964-.027.428,0,.854.058,1.282.07.262.007.525-.048.787-.033.353.02.7.094,1.057.121a12.315,12.315,0,0,0,2.692-.145c.229-.033.46,0,.69-.013.579-.041,1.158-.094,1.737-.144q.271-.024.541-.057a1.509,1.509,0,0,1,.309-.051c.377.035.753.108,1.13.13.8.045,1.6.067,2.4.1,2.493.092,4.993.066,7.492.066a13.027,13.027,0,0,0,1.778-.023c.613-.086,1.245-.011,1.846-.152a8.373,8.373,0,0,1,1.519-.137c.342-.02.679-.09,1.022-.1a4.7,4.7,0,0,0,.8-.017c.469-.09.931-.067,1.4-.157a12.471,12.471,0,0,1,1.594-.058c.54-.03,1.079-.079,1.616-.142,1.075-.127,2.141-.312,3.2-.532.517-.107,1.013-.144,1.519-.3a8.263,8.263,0,0,1,1.455-.288c1.133-.128,2.3-.188,3.436-.216.645-.016,1.3-.142,1.943-.205a4.987,4.987,0,0,0,1.616-.406c.255-.116.505-.16.755-.3.178-.1.349-.2.527-.3a9.749,9.749,0,0,0,1.512-.85,8.988,8.988,0,0,1,1.355-.764c.255-.141.508-.291.754-.444a8.1,8.1,0,0,0,.754-.411,2.343,2.343,0,0,0,.635-.761c.073-.137.128-.281.195-.42a4.374,4.374,0,0,0,.3-.542A3.169,3.169,0,0,0,606.075,254.775Zm-89.262,3.74h0a.213.213,0,0,1,.016.015A.213.213,0,0,0,516.813,258.515Zm.152,3.575-.071,0,.071,0,.077-.182Z" transform="translate(-514.323 -253.243)" fill="#b3b3b3"/>
      </g>
    </g>
    <g id="Grupo_177" data-name="Grupo 177" transform="translate(2.417 99.689)">
      <path id="Trazado_405" data-name="Trazado 405" d="M518.1,527.783h4.521v1.448H519.9v1.447h2.253v1.447H519.9v2.561h-1.8Z" transform="translate(-518.098 -525.888)" fill="#b3b3b3"/>
      <path id="Trazado_406" data-name="Trazado 406" d="M543.043,527.783h1.8v4.361a1.2,1.2,0,0,0,.09.481.948.948,0,0,0,.258.348,1.085,1.085,0,0,0,.4.212,2.006,2.006,0,0,0,1.058,0,1.085,1.085,0,0,0,.4-.212.949.949,0,0,0,.258-.348,1.2,1.2,0,0,0,.09-.481v-4.361h1.8v4.361a2.6,2.6,0,0,1-.219,1.073,2.47,2.47,0,0,1-.62.842,2.844,2.844,0,0,1-.971.549,3.859,3.859,0,0,1-1.264.2,3.914,3.914,0,0,1-1.278-.2,2.867,2.867,0,0,1-.975-.549,2.455,2.455,0,0,1-.623-.842,2.6,2.6,0,0,1-.219-1.073Z" transform="translate(-533.813 -525.888)" fill="#b3b3b3"/>
      <path id="Trazado_407" data-name="Trazado 407" d="M574.033,527.783h1.83l2.041,3.225c.07.113.143.238.217.375s.141.265.2.385q.1.213.2.42h.02c-.013-.142-.027-.284-.04-.425-.01-.12-.019-.248-.028-.384s-.013-.259-.013-.37v-3.225h1.8v6.9h-1.814l-2.057-3.215c-.074-.113-.147-.239-.219-.375s-.139-.265-.2-.384c-.071-.138-.138-.279-.2-.42h-.021c.013.145.027.287.04.43.01.119.02.247.028.381s.013.258.013.368v3.215h-1.8Z" transform="translate(-553.336 -525.888)" fill="#b3b3b3"/>
      <path id="Trazado_408" data-name="Trazado 408" d="M605.474,527.783h2.621a5.048,5.048,0,0,1,1.575.231,3.374,3.374,0,0,1,1.2.672,2.958,2.958,0,0,1,.766,1.08,4.068,4.068,0,0,1,0,2.914,2.993,2.993,0,0,1-.766,1.09,3.379,3.379,0,0,1-1.2.682,4.938,4.938,0,0,1-1.575.235h-2.621Zm2.551,5.455a2.555,2.555,0,0,0,.841-.129,1.623,1.623,0,0,0,1.031-1.017,2.524,2.524,0,0,0,.138-.872,2.432,2.432,0,0,0-.143-.868,1.628,1.628,0,0,0-1.039-1,2.572,2.572,0,0,0-.828-.125h-.747v4.007Z" transform="translate(-573.143 -525.888)" fill="#b3b3b3"/>
      <path id="Trazado_409" data-name="Trazado 409" d="M638.286,533.238h-2.3l-.449,1.448h-1.854l2.5-6.9h1.9l2.51,6.9h-1.859Zm-1.154-3.88c-.03.145-.064.288-.1.428q-.046.179-.1.384c-.036.137-.07.261-.1.37l-.423,1.345h1.457l-.413-1.345c-.034-.109-.069-.233-.1-.37s-.067-.265-.094-.384c-.037-.141-.07-.284-.1-.428Z" transform="translate(-590.916 -525.888)" fill="#b3b3b3"/>
      <path id="Trazado_410" data-name="Trazado 410" d="M663.1,531.02a3.371,3.371,0,0,1,.292-1.4,3.448,3.448,0,0,1,.809-1.126,3.769,3.769,0,0,1,1.228-.753,4.252,4.252,0,0,1,1.542-.273,4.51,4.51,0,0,1,.642.042,5.162,5.162,0,0,1,.559.11,3.705,3.705,0,0,1,.474.158c.142.06.273.12.39.179a3.344,3.344,0,0,1,.7.486l-.836,1.273a3.781,3.781,0,0,0-.539-.349,3.953,3.953,0,0,0-.589-.243,2.312,2.312,0,0,0-.721-.11,2.345,2.345,0,0,0-.922.167,1.914,1.914,0,0,0-.653.444,1.77,1.77,0,0,0-.385.632,2.156,2.156,0,0,0-.127.728,2.217,2.217,0,0,0,.134.755,2,2,0,0,0,.4.667,1.979,1.979,0,0,0,.656.474,2.133,2.133,0,0,0,.9.179,2.251,2.251,0,0,0,.4-.035,2.5,2.5,0,0,0,.373-.1,2.983,2.983,0,0,0,.335-.137c.1-.05.2-.1.287-.155a3.387,3.387,0,0,0,.564-.425l.933,1.236a3.514,3.514,0,0,1-.761.58c-.128.072-.269.144-.424.214a3.719,3.719,0,0,1-.509.187,4.97,4.97,0,0,1-.6.13,4.488,4.488,0,0,1-.683.049,4.4,4.4,0,0,1-1.58-.271,3.628,3.628,0,0,1-1.222-.752,3.366,3.366,0,0,1-.789-1.136A3.6,3.6,0,0,1,663.1,531.02Z" transform="translate(-609.446 -525.687)" fill="#b3b3b3"/>
      <path id="Trazado_411" data-name="Trazado 411" d="M694.456,527.783h1.8v6.9h-1.8Z" transform="translate(-629.201 -525.888)" fill="#b3b3b3"/>
      <path id="Trazado_412" data-name="Trazado 412" d="M712.561,527.966a3.4,3.4,0,0,1,.131-.948,3.436,3.436,0,0,1,.373-.846,3.38,3.38,0,0,1,.587-.712,3.694,3.694,0,0,1,.776-.547,4.039,4.039,0,0,1,.932-.351,4.665,4.665,0,0,1,2.12,0,3.988,3.988,0,0,1,.932.351,3.736,3.736,0,0,1,.774.547,3.4,3.4,0,0,1,.589.712,3.373,3.373,0,0,1,.507,1.795,3.5,3.5,0,0,1-1.093,2.567,3.745,3.745,0,0,1-1.222.767,4.443,4.443,0,0,1-3.091,0,3.742,3.742,0,0,1-1.222-.767,3.506,3.506,0,0,1-1.094-2.567Zm1.865,0a2.142,2.142,0,0,0,.156.818,2.053,2.053,0,0,0,.426.655,1.972,1.972,0,0,0,.633.434,2,2,0,0,0,1.557,0,1.97,1.97,0,0,0,.633-.434,2.025,2.025,0,0,0,.425-.655,2.121,2.121,0,0,0,.156-.818,1.965,1.965,0,0,0-.156-.788,1.936,1.936,0,0,0-.425-.627,1.974,1.974,0,0,0-.633-.415,2.086,2.086,0,0,0-1.557,0,1.952,1.952,0,0,0-1.215,1.83Zm2.087-5.3h1.769l-1.22,1.447h-1.38Z" transform="translate(-640.606 -522.661)" fill="#b3b3b3"/>
      <path id="Trazado_413" data-name="Trazado 413" d="M746.646,527.783h1.83l2.041,3.225c.07.113.143.238.217.375s.141.265.2.385q.1.213.2.42h.02c-.013-.142-.027-.284-.04-.425-.011-.12-.019-.248-.028-.384s-.013-.259-.013-.37v-3.225h1.8v6.9h-1.815l-2.056-3.215c-.074-.113-.147-.239-.219-.375s-.139-.265-.2-.384c-.071-.138-.138-.279-.2-.42h-.021c.014.145.027.287.04.43.011.119.02.247.028.381s.012.258.012.368v3.215h-1.8Z" transform="translate(-662.08 -525.888)" fill="#b3b3b3"/>
    </g>
  </g>
</svg>
