<svg xmlns="http://www.w3.org/2000/svg" width="241.581" height="74.187" viewBox="0 0 241.581 74.187">
  <g id="Grupo_95" data-name="Grupo 95" transform="translate(0 0)">
    <g id="Grupo_92" data-name="Grupo 92" transform="translate(0 0.001)">
      <path id="Trazado_361" data-name="Trazado 361" d="M327.437,487.462c-5.361-1.054-10.542-.613-14.145-.349s-9.833,3.16-8.691,1.756a98.287,98.287,0,0,0,7.02-9.132c2.286-3.687,3.87-8.244,5.367-12.029s3.736-7.6,6.283-9.889c3.371-3.026,13.117-2.579,13.117-2.579l4.479-10.448c-12.816-.963-20.2,5.621-22.482,8.867a19.529,19.529,0,0,0-2.372,5.445c-.7,2.018-3.5,9.221-5.964,15.8a32.838,32.838,0,0,1-9.66,13,20.42,20.42,0,0,1-4.746,2.9l2.907,7.9c8.424-6.575,16.412-8.511,20.8-8.682,5.447-.8,12.265.441,14.051.876a102.934,102.934,0,0,1,9.746,3.42c.529.269.789-.1.621-.331-2.64-2.631-12.027-5.671-16.332-6.521" transform="translate(-295.644 -424.931)" fill="#b3b3b3"/>
      <path id="Trazado_362" data-name="Trazado 362" d="M490.028,592.673c-.557.505-2.089,2.536-4.119,3.424-1.973.882-2.593-.1-2.251-1.309.992-2.326,4.241-5.671,3.2-5.32a45.407,45.407,0,0,1-4.619.864,9.587,9.587,0,0,1,.888-2.938c-4.763-.365-9.967,5.483-10.762,6.307s-3.214,3.057-5.406,3c-1.979-.047-1.961-1.59-1.816-3.257.621-1.968,3.416-4.367,3.713-4.775s-1.9-1.326-3.029-1.853a9.9,9.9,0,0,1-4.09,3.873c-1,.371-.458-.329-.342-1.749s.429-1.375.225-1.9a10.228,10.228,0,0,0-3.643.206c-.684,2.269-1.915,2.37-2.6,2.837-1.323.984-1.311.188-1.183-.919.117-.987.354-1.058-.011-1.265-1.944-1.151-3.342-1.044-3.406-.6a10.82,10.82,0,0,1-4.043,3.954,8.173,8.173,0,0,1-3.928.957c-1.485-.023-1.492-.2-1.608-.717a3.49,3.49,0,0,0-.7-2.074c-.47-.638-.569-.817-1.022-.98a28.511,28.511,0,0,0-2.57,1.4c-.638.417-.36.847-.029,1.4a2.675,2.675,0,0,1,.029,2.721,3.723,3.723,0,0,1-2.883,2.239c-1.323.049-1.705-1.74-.946-3.519a8.092,8.092,0,0,1,4.16-3.947c1.648-.514,2.17-2.075.418-1.833a10.846,10.846,0,0,0-5.43,2.428,5.971,5.971,0,0,0-2.646,5.744c.412,3.71,3.789,4.839,6.748,2.826,3.289-2.959,2.054-4.436,3.272-4.76,3.435,2.141,6.8.067,8.064-.456s1.23-.057.633,1.141-4.154,4.224-3.8,4.264a32.156,32.156,0,0,0,4.09.647c2.755-2.318,4.45-5.465,5.013-6.019a2.949,2.949,0,0,1,2.686-1.114c1.421.54-2.779,5.114-3.481,6.3a35.125,35.125,0,0,0,4.861.517c.8-.5,1.109-2.77,1.852-3.965.7-1.282,2.152-2.887,2.036-.583-.3,3.074.609,5.946,5.425,5,2.477-.482,4.316-2.487,4.641-2.005,1.311,2.89,3.743,2.155,5,1.845,1.5-.385,2.175-1.679,3.318-1.6.041.887.465,2.436,2.947,1.9s4.647-2.219,7.24-4.978c1.138-1.275.459-1.856-.092-1.352m-8.192-1.45a14.334,14.334,0,0,1-1.624,3.322c-.841,1.038-1.77,2.675-3.846,2.042-1.277-.638-.308-2.617,1.345-4.218.992-1.358,4.514-2.011,4.125-1.146" transform="translate(-405.185 -541.212)" fill="#b3b3b3"/>
      <path id="Trazado_363" data-name="Trazado 363" d="M796.535,489.717a51.86,51.86,0,0,0-14.139-.349c-3.6.264-9.828,3.16-8.7,1.761a102.885,102.885,0,0,0,7.032-9.135c2.274-3.684,3.846-8.255,5.355-12.035,1.48-3.771,3.737-7.6,6.283-9.889,3.37-3.014,13.115-2.573,13.115-2.573l4.484-10.449c-12.824-.968-20.192,5.614-22.484,8.862a18.937,18.937,0,0,0-2.362,5.442c-.714,2.023-3.515,9.222-5.97,15.813a32.8,32.8,0,0,1-9.671,13,20.5,20.5,0,0,1-4.74,2.9l2.9,7.9c8.436-6.59,16.425-8.522,20.811-8.7,5.436-.789,12.259.449,14.057.882a102.372,102.372,0,0,1,9.737,3.422c.525.256.789-.11.615-.333-2.634-2.625-12.018-5.673-16.329-6.52" transform="translate(-679.453 -426.777)" fill="#b3b3b3"/>
      <path id="Trazado_364" data-name="Trazado 364" d="M966.956,538.177c-.556.441-2.813,4.212-5.964,5.042-1.178.348-2.581.5-2.161-1.126.821-1.769,3.4-4.707,3.345-5.94a23.76,23.76,0,0,1-4.868,1.264,9.2,9.2,0,0,1,1.5-3.562c-1.9-.853-6.66,2.173-9.674,5.25a19.6,19.6,0,0,1-4.436,2.791s-2.39,1.459-3.945.89c-1.531-.574,1.464-4.809,2.3-6.666.865-1.865,7.107-12.134,8.5-14.216-.537.081-3.7-.177-4.038.194s-5.48,9.639-6.075,10.837a14.276,14.276,0,0,1-1.573,2.69c-1.134-1.71-2.25-2.353-4.716-1.938-2.007.328-5.488,4.015-6.254,5a27.132,27.132,0,0,1-3.9,3.048s-2.686,1.489-3.518,1.236,1.708-3.487,2.417-4.517,1.67-2.73-.006-3.922c-.855-.612-4.365.847-5.2,1.833-.821.981-2.863,1.245-2.932.963s.777-1.328.684-1.674a12.789,12.789,0,0,0-3.26-1.72,38.213,38.213,0,0,1-5.094,5.932,9.577,9.577,0,0,1-5.949,3.277c-3.6.647-2.541-1.873-2.28-2.355s3.956-4.966,3.655-5.12-2.623-1.7-3.092-2.054a23.222,23.222,0,0,1-7.079,9.26c-.945.971-3.741,1.94-4.635,2.44-.574.321-.139.777.871.347,2.7-.481,5.453-2.819,5.476-2.35s.6,2.583,2.466,2.843c2.274.064,8.7-2.01,11.1-5.03.695-.316,2.059-2.143,1.282-.054a17.075,17.075,0,0,1-3.429,4.652l4.746.029c.452-.2,2.581-4.169,3.794-5.572a4.6,4.6,0,0,1,4.374-1.8c1.538.331-1.015,2.156-1.908,4.079-.92,1.915-.592,3.484,1.961,3.365,2.587-.124,7.266-3.989,6.945-3.214a3.216,3.216,0,0,0,2.4,2.816c2.663.516,4.671-.053,7.566-1.778-.227.716.168,1.666,1.425,2.138,3.97.417,7.353-2.475,8.786-3.1a2.476,2.476,0,0,0,2.028,3.348,10.172,10.172,0,0,0,6.709-1.784c.528,2.143,2.658,1.955,4.621,1.506,4.221-1.872,7.376-6.837,7.376-6.837s.778-1.027-.33-.743m-28.808.99a6.735,6.735,0,0,1-3.013,3.132c-1.456.864-2.77,1.021-3.6.177-1.181-1.2,2.477-5.308,4.636-6.113,1.067-.4,3.852-.183,1.981,2.8m18.76.841a6.16,6.16,0,0,1-2.843,2.958c-1.464.835-2.41,1.076-3.249.244-1.187-1.2,2.257-4.5,4.412-5.309,1.07-.4,3.135-.69,1.68,2.107" transform="translate(-780.669 -488.09)" fill="#b3b3b3"/>
      <path id="Trazado_365" data-name="Trazado 365" d="M967.745,552.395c-2.031,3.641.76,4.75,3.014,3.02,1.473-1.09,1.995-3.057,1.163-3.748-1.766-2.086-3.974-.026-4.177.728" transform="translate(-844.971 -511.71)" fill="#b3b3b3"/>
      <path id="Trazado_366" data-name="Trazado 366" d="M1096.053,672.622h1.529v7.768h-.777v-7.014h-1.213Z" transform="translate(-950.148 -611.416)" fill="#b3b3b3"/>
      <path id="Trazado_367" data-name="Trazado 367" d="M1141.016,679.67l-.644-.412,2.112-3.182a2.574,2.574,0,0,1-.8.133,2.064,2.064,0,0,1-1.563-.665,2.267,2.267,0,0,1-.653-1.645,2.343,2.343,0,0,1,.319-1.209,2.211,2.211,0,0,1,.879-.858,2.393,2.393,0,0,1,1.23-.332,2.3,2.3,0,0,1,1.189.322,2.217,2.217,0,0,1,.856.867,2.4,2.4,0,0,1,.313,1.2,2.975,2.975,0,0,1-.2,1,6.369,6.369,0,0,1-.685,1.265Zm.842-4.137a1.636,1.636,0,0,0,0-3.272,1.636,1.636,0,0,0,0,3.272" transform="translate(-986.046 -610.5)" fill="#b3b3b3"/>
      <path id="Trazado_368" data-name="Trazado 368" d="M1188.739,674.136h-.748a2.655,2.655,0,0,1,.769-1.891,2.476,2.476,0,0,1,1.818-.743,2.322,2.322,0,0,1,1.741.7,2.278,2.278,0,0,1,.661,1.63,2.574,2.574,0,0,1-.312,1.241,9.342,9.342,0,0,1-1.23,1.567l-1.932,2.079h3.58v.754h-5.274l2.964-3.205a9.358,9.358,0,0,0,1.175-1.439,1.907,1.907,0,0,0,.27-.986,1.485,1.485,0,0,0-.487-1.125,1.639,1.639,0,0,0-1.186-.472,1.685,1.685,0,0,0-1.245.492,2.134,2.134,0,0,0-.563,1.4" transform="translate(-1025.601 -610.5)" fill="#b3b3b3"/>
      <path id="Trazado_369" data-name="Trazado 369" d="M1241.312,671.5h.159v5.43h.943v.737h-.943v1.8h-.771v-1.8h-3.72Zm-.612,5.43v-3.263l-2.3,3.263Z" transform="translate(-1065.83 -610.5)" fill="#b3b3b3"/>
      <g id="Grupo_91" data-name="Grupo 91" transform="translate(137.262 0)">
        <path id="Trazado_370" data-name="Trazado 370" d="M1095.608,348.323l.14-.889s1.886.186,2.6.244a3.592,3.592,0,0,1-.145-1.314s.783-.386,1.245-.142-1.006-.485-.769-1.2,1.164.04,1.164.04a3.72,3.72,0,0,1-.275-2.188c-.29-.516,2.054-.461,2.006-.966s-2.123-.13-3.527-1.169c-2.109-1.868-4.618-1.656-4.511-1.218s.513,0,.311,1.042-.535,1.056-1.442-.293a16.9,16.9,0,0,0-6.013-.974c-2.057.018-10.769,2.654-10.769,2.654a24.958,24.958,0,0,1-12.215.073,24.409,24.409,0,0,1-10.637-4.653c-.65-.592-1.874-2.121-2.176-.963-.127,1.323,6.167,6.6,12.055,8.813a35.651,35.651,0,0,0,11.615,2.5c3.138.307,10.269-1.839,12.007-.859.734.5-.886.211-1.671.6s.046,1.058-.113,1.413a2.941,2.941,0,0,1-2.194.885c-.5.45-1.473,1.575-1.926,1.984a3.508,3.508,0,0,1,2.506-.864c1.062-.221,1.3-.933,2.077-1.494s2.035-.441,2.553-.815c-.9-.223-1.1-.743-1.369-.734s3.354-.841,3.553-.322-1.975,1.663-2.764,2.138-2.344,1.508-2.861,1.793c-2.9,1.087-4,2.28-3.991,2.628s.737.493,1.1.659c.573.855,1.839,1.331,2.5,2.271s3.646,1.781,5.637.38c1.209-.931,1.984-1.494,2.8-1.352s.209.783-.043,1.148a5.948,5.948,0,0,1-.845,1.091c-.259.183,2.054,0,1.079.215s-1.428,2.082-1.851,2.541,2.051-2.106,2.051-2.106-.553,1.607.31,1.129c.667-1.172,1.268-.67,1.268-.67s-.377-1.214-.461-1.471c.115.319,1.281-1.293,1.426-2-.527-1.918-1.49-1.523-1.49-1.523a3.054,3.054,0,0,1-2.355,1.331c-.6.375-2.3,2.385-4.906,1.967-1.494.589-4.149-3.081-5.33-3.556-.406-1.039,2.629-.992,2.629-.992l4.452-.362s-2.549.983-1.474,1.027,1.679-.334,3.26-.842,1.82.8,1.82.8-2.67,2.221-1.185,1.5a9.012,9.012,0,0,0,2.855-2.1s.865-.563,1.021-1.1-1.775.163-2.811-1.024c-3.881-1.157-7.525,1.282-7.87,1.476a4.65,4.65,0,0,1-1.334.229s5.917-3.5,7.756-4.285,4.305.613,4.305.613.244-.627-.3-.778S1095.608,348.323,1095.608,348.323Zm-9.817-5.79c-1.207-.017-3.121.734-3.032,1.053.12.432,3.113-1.076,1.947.113-1.408,1.434-6.922,2-10.13,2.475-7.263.7-13.956-2.449-16.691-3.983-3.077-1.517-7.1-4.843-6.663-5.587,3.594,2.814,5.4,4.323,11.087,5.8a26.372,26.372,0,0,0,15.455-.366c1.791-.407,4.662-1.561,6.675-1.381s3.835.453,3.794,1.115S1087,342.546,1085.792,342.532Zm7.38,2.063c-.313.545-.168.736.25,1.114s.711.957.113,1.047-.548-.3-.925.241-.569.682-1.253.511-1.276-.207-1.293-.537,2.216.107,2.524-.5-.29-.514-.377-.972.5-.615.6-1.41-.516-1.233-.215-1.906.789-.363.981-.568c.226-.244.476.243.5.638s.88.36.423.574-1.146-.212-1.2.186.621.437.647.962S1093.485,344.058,1093.171,344.595Z" transform="translate(-1050.591 -335.987)" fill="#b3b3b3"/>
        <path id="Trazado_371" data-name="Trazado 371" d="M1213.834,422.693c.014-.006.026-.023.037-.035C1213.751,422.754,1213.721,422.789,1213.834,422.693Z" transform="translate(-1184.096 -406.9)" fill="#b3b3b3"/>
        <path id="Trazado_372" data-name="Trazado 372" d="M1187.5,440.6c.577-.49,1.55-1.32,1.872-1.6.366-.319-1.089-.284-1.535.2s-.481,1.274-1.555,1.123-.4.017-.853.3S1186.913,441.086,1187.5,440.6Z" transform="translate(-1160.854 -420.101)" fill="#b3b3b3"/>
        <path id="Trazado_373" data-name="Trazado 373" d="M1188.121,440.092a5.936,5.936,0,0,0-2.271,1.683,3.16,3.16,0,0,1-.891,1.024c-.519.414-1.325.316-1.714.6s-.912.569.156.522,1.6-.2,1.793-.406-.221-.387.5-.743,1.52-.527,1.817-1.4,1.375-.653,1.85-.476S1188.722,440.069,1188.121,440.092Z" transform="translate(-1158.737 -421.164)" fill="#b3b3b3"/>
        <path id="Trazado_374" data-name="Trazado 374" d="M1185.43,461.476c-.047.528-.157-.458-.986.435s-1.7.8-1.163.844a6.716,6.716,0,0,0,1.657-.336C1185.8,462.253,1185.459,461.078,1185.43,461.476Z" transform="translate(-1159.019 -438.593)" fill="#b3b3b3"/>
        <path id="Trazado_375" data-name="Trazado 375" d="M1161.233,466.96c-.8.16-1.358,1.109-1.021,1.03.412-.1.9-.633,1.513-.592C1162.323,467.437,1162.027,466.789,1161.233,466.96Z" transform="translate(-1140.2 -443.124)" fill="#b3b3b3"/>
        <path id="Trazado_376" data-name="Trazado 376" d="M1168.5,470.8a1.939,1.939,0,0,0-1.608,0c-.391.284-.922.238-1.256.385s-1.447.586-1.5.856c-.117.591,1.058-.31,1.592-.334s1.168-.841,1.656-.464,1.364.667,1.683.323S1168.774,470.99,1168.5,470.8Z" transform="translate(-1143.483 -446.147)" fill="#b3b3b3"/>
        <path id="Trazado_377" data-name="Trazado 377" d="M1280.737,466.24c-.708.554-1.706.665-1.32,1.9s-.207-1.572.954-1.1-.093,1-.473,1.4a2.372,2.372,0,0,0-.589,1.807c.093.656-.237.737-.223,1.068s.763.624.734,1.485.116,1.181.3.72a2.4,2.4,0,0,0-.081-1.914,1.77,1.77,0,0,1-.226-2.036,6.279,6.279,0,0,1,1.607-1.587c.2-.006.1-.664-.168-.847s-.407-.116-.221-.389c.374-.537.365-.876.749-1.218S1281.45,465.683,1280.737,466.24Z" transform="translate(-1237.542 -441.887)" fill="#b3b3b3"/>
        <path id="Trazado_378" data-name="Trazado 378" d="M1246.219,482.79c-.545.392.116,1.12.371.778S1246.41,482.651,1246.219,482.79Z" transform="translate(-1210.479 -456.082)" fill="#b3b3b3"/>
        <path id="Trazado_379" data-name="Trazado 379" d="M1245.2,495.419c-.206.337.09.717.282.447S1245.33,495.213,1245.2,495.419Z" transform="translate(-1209.764 -466.384)" fill="#b3b3b3"/>
        <path id="Trazado_380" data-name="Trazado 380" d="M1275.01,477.12c-.326.212.285.45.4.116a2.44,2.44,0,0,0-.04-.987C1275.358,475.919,1275.329,476.908,1275.01,477.12Z" transform="translate(-1234.13 -450.693)" fill="#b3b3b3"/>
        <path id="Trazado_381" data-name="Trazado 381" d="M1274.309,488.963s-.177.533-.3.867.211.255.394-.15S1274.645,488.945,1274.309,488.963Z" transform="translate(-1233.371 -461.149)" fill="#b3b3b3"/>
        <path id="Trazado_382" data-name="Trazado 382" d="M1287.242,491.894c-.331.011-.865.035-1.053.372-.162.3.814.3,1.073.023S1287.578,491.877,1287.242,491.894Z" transform="translate(-1243.339 -463.546)" fill="#b3b3b3"/>
        <path id="Trazado_383" data-name="Trazado 383" d="M1316.63,475.229c.127-.269-1.016-.22-1.677-.131s-1.009-.087-1.19.447A1.865,1.865,0,0,0,1313.7,477c.223.517.8,1.483.688,2.014s.287.319.29-1-1.433-.795-.737-1.616a7.443,7.443,0,0,0,.7-.818C1314.854,475.229,1316.508,475.5,1316.63,475.229Z" transform="translate(-1265.759 -449.747)" fill="#b3b3b3"/>
        <path id="Trazado_384" data-name="Trazado 384" d="M1269.1,515.945l-.331.081c-.325.343-.168.8.09.589S1269.438,515.869,1269.1,515.945Z" transform="translate(-1228.953 -483.22)" fill="#b3b3b3"/>
        <path id="Trazado_385" data-name="Trazado 385" d="M1305.626,479.01c-.124.2-.325.206-.38.479s.366.707.508.9.264-.081.238-.673S1305.873,478.61,1305.626,479.01Z" transform="translate(-1258.941 -452.89)" fill="#b3b3b3"/>
        <path id="Trazado_386" data-name="Trazado 386" d="M1307.736,473.269c.459-.223.316-.345.047-.467s-.458.215-.9.7l.333.183S1307.278,473.483,1307.736,473.269Z" transform="translate(-1260.283 -447.906)" fill="#b3b3b3"/>
        <path id="Trazado_387" data-name="Trazado 387" d="M1309.769,459.589a.659.659,0,0,0,.179-.157C1309.694,459.569,1309.582,459.661,1309.769,459.589Z" transform="translate(-1262.57 -436.988)" fill="#b3b3b3"/>
        <path id="Trazado_388" data-name="Trazado 388" d="M1315.59,448.432c.151.389.2.058.725-.293s.853-.3.94.093.33-.017.592-.223a.376.376,0,0,1,.609.238c.082.261.087-1.189.691-1.152s.684.3.875.1-.374-.841-1.177-.742-1.045.511-1.916.473a8.855,8.855,0,0,0-2.935.192,6.586,6.586,0,0,1-1.579.527c-.376.07-.933.828-1.241,1.161a4.735,4.735,0,0,1,1.4-.5c.8-.1.917-.432,1.137-.046s.22.453.736.035S1315.442,448.04,1315.59,448.432Z" transform="translate(-1263.797 -426.356)" fill="#b3b3b3"/>
        <path id="Trazado_389" data-name="Trazado 389" d="M1339.088,468.763c.435-.285.56-.554.246-.449s-.383.322-.731.6-.455.853-.186.844c.314-.015,0,0,.39-.328S1338.662,469.044,1339.088,468.763Z" transform="translate(-1285.964 -444.236)" fill="#b3b3b3"/>
        <path id="Trazado_390" data-name="Trazado 390" d="M1345.975,475.416c-.757.075-.635.774-.954.656s.1-.711-.114-.566-.682.644-.646.421a1.128,1.128,0,0,0-.27-.957c-.275-.206-.073.27-.472.33s-.331-.472-.641-.412a.64.64,0,0,0-.508.638c.07.565.181.122.769.229s.322.337.43.729.2.476.33.383-.165-.787.182-.8.165.7.268.911.5.111.772.362.258.784.359,1,.159.652.551.417-.424-.557-.478-.774a2.737,2.737,0,0,1-.056-1.358,1.91,1.91,0,0,0,.192-.629c.04-.174.667-.113.879-.3a2.951,2.951,0,0,1,1.749.191,2.023,2.023,0,0,0,.646.5c.317.116.476.726.577.987s.464.464.546.2-.484-.859-.584-1.033.027-.529-.342-.6c-.351-.073.2.392-.675-.279S1346.727,475.341,1345.975,475.416Z" transform="translate(-1289.318 -449.63)" fill="#b3b3b3"/>
        <path id="Trazado_391" data-name="Trazado 391" d="M1370.735,486.293c-.507-.375-.676-1.16-1.218-1.358s-1.115.049-1.184.447c-.22,1.2.381,1.609.92,1.59a11.311,11.311,0,0,1,1.608.191c.582.067,1.325.737,1.587.725s.629.023.127-.223A6.343,6.343,0,0,1,1370.735,486.293Z" transform="translate(-1310.524 -457.797)" fill="#b3b3b3"/>
        <path id="Trazado_392" data-name="Trazado 392" d="M1351.928,464.032c-.214.188-.641.574-.424.585.357.032.526-.325.7-.467s.379-.408.325-.542S1352.146,463.848,1351.928,464.032Z" transform="translate(-1296.745 -440.383)" fill="#b3b3b3"/>
        <path id="Trazado_393" data-name="Trazado 393" d="M1353.861,455.669a5.414,5.414,0,0,1-.508.552.579.579,0,0,0-.206.492c.267.029.4-.148.7-.383S1353.942,455.533,1353.861,455.669Z" transform="translate(-1298.134 -433.892)" fill="#b3b3b3"/>
        <path id="Trazado_394" data-name="Trazado 394" d="M1343.888,457a6.72,6.72,0,0,0-1.867-.011c-.36.017.017-.485.186-.752a5.227,5.227,0,0,1,.464-.635c.209-.276.244-.5.5-.856s.087-.975-.128-.743-.1.7-.629.815-.153-.565.017-.7.4-.987.569-1.213-.076-.7-.3-.821-.336.452-.36.98-.3.406-.666.995-.006.839.2,1.311a1.645,1.645,0,0,1-.208,1.505c-.3.365-.568.157-.87.479s-.371.8-.011.7.337-.455.685-.6,1.119.035,1.781-.078a2.128,2.128,0,0,1,1.487.551,2.587,2.587,0,0,1,1.094,1.361,1.907,1.907,0,0,1-.381,1.691c-.3.362-.183.752-.438,1.163a11.562,11.562,0,0,1-2.211,1.412,3.17,3.17,0,0,1-1.631.287c-.411-.029-.787-.536-1.238-.519a1.579,1.579,0,0,1-1.091-.484c-.182-.212.262-.189.622-.241s.621.058.078-.183a2.573,2.573,0,0,0-2.292.711c-.818.649-1.81.432-2.953.743s-2.309-.83-2.627-.986-1.738-2-2.059-2.2a7.609,7.609,0,0,1-1.39-1.262,1.272,1.272,0,0,0-1.009-.617c-.491-.067-.427-.641-.967-.751s-.661.012-.745.339c-.113.447.237.386.955.49s2.035,1.585,2.4,1.917a26.847,26.847,0,0,1,2.239,2.324c.572.728,1.192,1.715,1.75,2.309s.9,1.236,1.5,1.517.933.049,1.751.366a3.033,3.033,0,0,0,2.141,0c.661-.206.649-.424,1.305-.757a2.273,2.273,0,0,0,.963-1.451,5.389,5.389,0,0,1,.313-.984c.122-.179,1.111-.133,1.469-.058s.284.38.124.784-.9.873-1,1.76-.273.8-1.305,1.81-1.187.36-1.659.775a1.373,1.373,0,0,1-1.277.363c-.4-.073-.147-.345-.371-.383s.006.264-.336.5a4.007,4.007,0,0,1-1.918.035c-.357-.072.109-.577-.554-.5s-.9-.273-1.235-.7-.641-1.381-1.546-1.651-.333.455-.333.455a3.619,3.619,0,0,1,.731,1.424c.359,1.081.53.983.934.969s.645.5,1.166,1.183.957.531,1.325.824-.18.931.307.867,0-.881.485-1.163.87.449,1.143.65.179,1.093.187,1.314a1.931,1.931,0,0,1-.215,1.114c-.253.4-.674-.1-.912-.406a.612.612,0,0,0-.807-.185c-.223.139-.13.182.284.43s.281.3.214.867a4.12,4.12,0,0,1-.319,1.906,1.967,1.967,0,0,0-.1,1.764c.162.609.5,1.253.6,1.6s-.249,1.419.111,1.491.111-.62.223-1.064a2.151,2.151,0,0,0-.24-1.354,4.917,4.917,0,0,1-.191-1.442c-.075-.7.046-1.013.305-1.248s-.212-.563-.049-1.054.142.174.714-.031.255-.319.685-.73-.146-2.2.041-2.069.457-.766.518-.327.212.606.522.638.749-.079.351-.151-.34-.557-.58-1.029-.189-.212-.795-.8,0-1.1.567-1.389,1.04-.526,2.182-1.012.8-1.094,1.27-1.552.348-1.245.813-1.794a2.036,2.036,0,0,0,.336-1.554c-.017-.351.172-.14.482-.2a15.663,15.663,0,0,0,1.653-.992c.7-.377.453-.853,1.039-1.8a2.179,2.179,0,0,0,.024-2.512A4.869,4.869,0,0,0,1343.888,457Zm-4.468,9.118c-.562.285-.765.865-2.012.789s-1.288.183-2.019-.18-1.439-.333-1.77-.8a.655.655,0,0,1,.134-.974,2.682,2.682,0,0,1,2.489-.241c.684.415.774.409.928.8s.18-.934.934-.963.836-.346,1.2-.316.853.142.912.487A1.582,1.582,0,0,1,1339.42,466.113Z" transform="translate(-1275.491 -430.958)" fill="#b3b3b3"/>
        <path id="Trazado_395" data-name="Trazado 395" d="M1412.523,491.609c.4-.149.348-.323.835-.43s1.2.035,1.645-.026.469-.636.391-1.2c-.063-.571-.693-.676-1.223-.522s-.987.966-1.327,1.378-.734.424-.855.652C1411.925,491.568,1412.134,491.759,1412.523,491.609Z" transform="translate(-1346.272 -461.477)" fill="#b3b3b3"/>
        <path id="Trazado_396" data-name="Trazado 396" d="M1326.754,513.153a1.224,1.224,0,0,0-1,.522c-.168.232.476.763.365.163-.06-.3.783-.339.969-.215s.284.42.728.449.163-.4.015-.748S1327.381,513.083,1326.754,513.153Z" transform="translate(-1275.704 -480.883)" fill="#b3b3b3"/>
        <path id="Trazado_397" data-name="Trazado 397" d="M1342.735,521.221c-.232-.389-.574-.992-.934-.972s-1.51.061-1.452.325c.06.287.4.07.814.272s.714.056.906.4.4.905.6.633S1342.979,521.607,1342.735,521.221Z" transform="translate(-1287.664 -486.747)" fill="#b3b3b3"/>
        <path id="Trazado_398" data-name="Trazado 398" d="M1305.042,527.318a4.283,4.283,0,0,1,.017-1.674c.2-.49,1.175-1.627,1.082-1.758-.235-.322-.531.114-.743.383a2.014,2.014,0,0,0-.774,1.575,10.491,10.491,0,0,0,.127,2.06,8.326,8.326,0,0,1,.336,1.569c.029.661.371,1.349.218,1.84s-.455,1.818-.16,1.586a1.838,1.838,0,0,0,.488-1.207,16.625,16.625,0,0,0-.091-2.988A4.381,4.381,0,0,1,1305.042,527.318Z" transform="translate(-1258.435 -489.63)" fill="#b3b3b3"/>
        <path id="Trazado_399" data-name="Trazado 399" d="M1314.789,562.916c-.357-.032-.624-.061-.751.165s-.29.493-.43.281-.086-.922-.26-.823a1.732,1.732,0,0,0-.079,1.32c.192.215.642.324.763.055s.366-.8.726-.737S1315.146,562.945,1314.789,562.916Z" transform="translate(-1265.43 -521.34)" fill="#b3b3b3"/>
        <path id="Trazado_400" data-name="Trazado 400" d="M1322.27,545.84c.211-.267-.015-.389-.2-.472s-.255.278-.569.246-.1-.261-.075-.7-.041-.876-.047-1.093-.057-.223-.223.009a8.375,8.375,0,0,0,.049,2.149c.01.261.2.482.418.38A2.415,2.415,0,0,0,1322.27,545.84Z" transform="translate(-1271.91 -505.895)" fill="#b3b3b3"/>
        <path id="Trazado_401" data-name="Trazado 401" d="M1324.528,545.232c-.121.229,0,.442.2.432s.2-.624.145-.841S1324.654,545.006,1324.528,545.232Z" transform="translate(-1274.683 -506.801)" fill="#b3b3b3"/>
        <path id="Trazado_402" data-name="Trazado 402" d="M1328.234,544.618a10.417,10.417,0,0,0-.081,1.105.647.647,0,0,1,.278.247c.1.177.122-.177.107-.484S1328.344,544.084,1328.234,544.618Z" transform="translate(-1277.688 -506.567)" fill="#b3b3b3"/>
        <path id="Trazado_403" data-name="Trazado 403" d="M1332.551,539.145c-.117-.661-.581.065-.419-.339a3.007,3.007,0,0,0,.238-.8c.067-.334-.575.2-.511.679s-.04.969.227.96.1.3.243.519S1332.672,539.8,1332.551,539.145Z" transform="translate(-1280.717 -501.19)" fill="#b3b3b3"/>
        <path id="Trazado_404" data-name="Trazado 404" d="M1338.085,543.619a.747.747,0,0,0,.122-.4c-.012-.221.035-.221.435-.2s.215-.185.2-.4-.842.122-1.012.307S1337.866,543.584,1338.085,543.619Z" transform="translate(-1285.556 -504.991)" fill="#b3b3b3"/>
        <path id="Trazado_405" data-name="Trazado 405" d="M1345.323,540.132c.484-.021.212-2.159.038-1.979s-.058.618-.047.748-.25.493-.325.763A.328.328,0,0,0,1345.323,540.132Z" transform="translate(-1291.445 -501.388)" fill="#b3b3b3"/>
        <path id="Trazado_406" data-name="Trazado 406" d="M1285.29,564.239c-.031.355.339.69.134,1.094s-.2,1.549.02,1.49.014-.658.23-.838.266.032.243.386a2.807,2.807,0,0,1-.357,1.065c-.246.543-.07.4-.4.151s-.609.336-.638.6.583.107.888-.081.508-.636.678-.818a4.14,4.14,0,0,0,.513-1.476c.069-.482-.481-.769-.583-1.161S1285.314,563.9,1285.29,564.239Z" transform="translate(-1241.991 -522.629)" fill="#b3b3b3"/>
        <path id="Trazado_407" data-name="Trazado 407" d="M1329.13,599.509a4.058,4.058,0,0,0-.505.641c-.211.316-.136.693.161.74C1329.009,600.925,1329.259,599.376,1329.13,599.509Z" transform="translate(-1277.976 -551.59)" fill="#b3b3b3"/>
        <path id="Trazado_408" data-name="Trazado 408" d="M1340.766,583.943c-.357.011-.374.584-.534,1.119s-.347.233-1,.522-.365.766-.661,1.175-.586.809-.452.85c.585.2.777-.514.806-.867s-.11-.435.552-.725a6.853,6.853,0,0,0,1.258-.714C1341.169,585.019,1341.123,583.923,1340.766,583.943Z" transform="translate(-1285.812 -538.86)" fill="#b3b3b3"/>
        <path id="Trazado_409" data-name="Trazado 409" d="M1356.232,583.23c-.4.067-.3.322-.372.769s-.249.356-.287.536c0,0,.221-.1.525-.2s.084-.224.476-.328.2-.49.2-.67S1356.632,583.169,1356.232,583.23Z" transform="translate(-1300.123 -538.246)" fill="#b3b3b3"/>
        <path id="Trazado_410" data-name="Trazado 410" d="M1365.2,575.674c.389-.237.291-.319.459-.722s.206-.27.365-.676-.052-1.274-.362-1.172-.023.357-.043,1.062a1.054,1.054,0,0,1-.487,1.024c-.261.233-.52.375-.661.248s-.1-.52-.279-.334.07.522.036.746-.126.31-.2.577-.18.961.035.877c.128-.047.268.035.4-.1s-.229-.122.061-.618S1364.812,575.913,1365.2,575.674Z" transform="translate(-1306.965 -529.986)" fill="#b3b3b3"/>
        <path id="Trazado_411" data-name="Trazado 411" d="M1385.06,587.655c-.185.229-.13.136-.13,1.015s-.146,1.811.087,2.063.29-.583.267-1.067S1385.364,587.284,1385.06,587.655Z" transform="translate(-1324.103 -541.859)" fill="#b3b3b3"/>
        <path id="Trazado_412" data-name="Trazado 412" d="M1371.209,610.718c-.165.276-.121.229.059.308s.11.522.04.965a2.09,2.09,0,0,1-.571,1.17,1.043,1.043,0,0,0-.421.632c-.075.264.018.308.32.166a6.438,6.438,0,0,0,1.032-1.851,1.034,1.034,0,0,0,.146-.8C1371.795,610.785,1371.331,610.519,1371.209,610.718Z" transform="translate(-1312.164 -560.714)" fill="#b3b3b3"/>
        <path id="Trazado_413" data-name="Trazado 413" d="M1385.411,458.874c.44-.017-.473-.638-.665-.937s-.444-.908-.879-1.6a5.315,5.315,0,0,1-.748-1.947c-.174-.783-.151-1.49-.409-1.215s-.038,1.235.073,1.627.313,1.171.635,1.375.833,1.729,1.12,2.112S1384.964,458.894,1385.411,458.874Z" transform="translate(-1322.229 -431.823)" fill="#b3b3b3"/>
        <path id="Trazado_414" data-name="Trazado 414" d="M1375.835,432.462c-.174.241.568.337.954.911.328.476.673.894.728.691.061-.317-.574-.9-.759-1.155S1375.994,432.253,1375.835,432.462Z" transform="translate(-1316.679 -414.874)" fill="#b3b3b3"/>
        <path id="Trazado_415" data-name="Trazado 415" d="M1391.764,439.536c.391-.235.13,0,.412.162s.052.258.449.195.268-.1.418.3.218.955.473.772.133-.1.386-.415.4-.058.713-.117.232.3.477.769.365.253.434-.235.278-.725.662-.467c.7.481.225-.107.524-.3s.563-.1,1.047-.119,1.065.746,1.282.653-.261-.653-.574-.946a11.418,11.418,0,0,0-1.889-1.326c-.45-.206-.606.287-.821.647s-1.287.1-2,.13-.632-.151-1.172-.3S1391.438,439.737,1391.764,439.536Z" transform="translate(-1329.658 -419.787)" fill="#b3b3b3"/>
        <path id="Trazado_416" data-name="Trazado 416" d="M1392.257,448.848a4.445,4.445,0,0,0-.723-.148c-.437-.078.362.613.647.455C1392.3,449.089,1392.425,448.9,1392.257,448.848Z" transform="translate(-1329.441 -428.202)" fill="#b3b3b3"/>
        <path id="Trazado_417" data-name="Trazado 417" d="M1394.127,453.516c-.182.22.354.316.359.119C1394.5,453.364,1394.249,453.37,1394.127,453.516Z" transform="translate(-1331.635 -432.066)" fill="#b3b3b3"/>
        <path id="Trazado_418" data-name="Trazado 418" d="M1391.885,423.081c.266.079.893,1.019,1.334,1s.232.213.769.275.438-.281.74-.556,1.012-.261,1.264-.54-.319-.206-.725-.142a2.629,2.629,0,0,0-1.352.5c-.343.319-.592-.238-1-.484S1391.513,422.98,1391.885,423.081Z" transform="translate(-1329.765 -407.158)" fill="#b3b3b3"/>
        <path id="Trazado_419" data-name="Trazado 419" d="M1365.562,354a25.215,25.215,0,0,1-2.9,1.047,21.233,21.233,0,0,1-4.467.931,33.781,33.781,0,0,1-9.068-.316c-2.652-.5-6.3-.966-8.14-1.549a19.077,19.077,0,0,0-5.819-.636,18.214,18.214,0,0,0-4.348.58,11.38,11.38,0,0,1-2.7.378c-.8-.012-.186-.038.161-.319s.076-.307-.5-.194-.568.327-1,.348-1.781.209-2.228.226-.728-.409-.481-.949,1.335-.012,1.335-.012.441-.15-.015-.307-.922-.708-1.528-.287-1.237.363-1.881.827a8.72,8.72,0,0,1-2.105.748,3.218,3.218,0,0,1-2.229.009,4.8,4.8,0,0,0-2.2-.394,4.238,4.238,0,0,1-2.094.09c-.812-.232-.459-1.3-1.068-1.013s.6.417.168.833-1.325-.783-1.312-.476,1.021.969,1.839,1.288.806.055,1.462-.107a6,6,0,0,1,2.28.037c1.076.128.592.151,1.41.647s1.248-.011,1.735-.119a4.063,4.063,0,0,0,1.83-.957s.966-.351,1.145-.179a1.344,1.344,0,0,0,1.178.341,2.051,2.051,0,0,0,1.8.276,4.09,4.09,0,0,1,1.216.212.338.338,0,0,1,.287.519c-.121.229-.522.374-.151.577s.241.429,1.019.882.751.847,1.076,1.186a1.833,1.833,0,0,1,.548,1.34c.032.658-.3.1-.565.374s-.026.441.342.6.11.612.13,1.047.357.867.374,1.309a1.194,1.194,0,0,0,.658.94c.372.246.14-.006.734.365s-.186-.084.107,1.357c.276,1.438-.162.533-.352,1.287s-.689.56-.632.911.354-.063.662-.3.307-.055.626-.026a3.762,3.762,0,0,0,1.373-.188,2.447,2.447,0,0,0,.861-.609,1.639,1.639,0,0,1,1.189-.36c.534-.021.812.189.984.006s-1.137-.529-1.329-.737-.722-.145-1.262-.3-.563.417-1.178.577-.6-.418-.522-.638a1.464,1.464,0,0,0-.179-1.181c-.284-.34-.725-.322-1.1-.613a.971.971,0,0,1-.316-1.131c.165-.357.45.117.942.093s.914.577,1.6.9a6.851,6.851,0,0,1,1.567,1.213c.325.3,1.149.742,1.52,1.125a6.883,6.883,0,0,0,1.61,1.073c.5.244.711.014,1.048.571s-1.8.6-2.648.685a12.648,12.648,0,0,0-2.661.2c-.531.241-.851-.052-1.433-.116s-1.439-.159-1.247.1c.284.385,1.58.42,2.518.467s3.785-.163,5.071-.3a2.622,2.622,0,0,0,1.752-.731c.482-.287-1.018-.884-1.018-.884a8.343,8.343,0,0,0-1.549-.815c-1.047-.438-2.538-1.871-3.4-2.318s-1.247-.917-1.363-1.395,1.717-.6,3.4-.8a17.267,17.267,0,0,1,6.022.049,46.176,46.176,0,0,0,7.9.33,29.509,29.509,0,0,0,6.713-1.558c4.435-1.639,6.707-2.474,8.427-3.214C1368.257,355.556,1369.621,352.026,1365.562,354Zm1.155,1.106a8.923,8.923,0,0,1-2.654,1.4c-1.345.548-4.344,1.515-6.132,2.04-.261.075-3.886,1.415-6.2,1.247s-3.325-.221-4.2-.316a17.656,17.656,0,0,1-3.936-.592,28.812,28.812,0,0,0-6.138-1.129c-1.337.024-3.208,0-3.023-.334s3.5-.107,3.185-.5a5.44,5.44,0,0,0-2.181-.3,13.2,13.2,0,0,0-3.037.1c-.3.177-1.489.557-1.537.226s1.076-.771,2.41-.891-.081-.264-.714-.232-1.456.325-2.193.417-1.265.087-1.151-.314c.206-.7.4-.809,1.667-1.023a30.181,30.181,0,0,1,4.145-.673c1.24-.017,4.058.29,5,.354s5.387.923,6.641,1.169,6.91,1.23,8.54,1.062,6.674-.317,9.224-1.712,3.148-1.451,3.189-1.253S1367.135,354.727,1366.716,355.1Z" transform="translate(-1263.768 -349.731)" fill="#b3b3b3"/>
        <path id="Trazado_420" data-name="Trazado 420" d="M1345.549,369.107c-.719,0-.244-.2-.951-.406s-.907-.117-.853.107c.081.29.848.522,1.321.684a2.616,2.616,0,0,1,1.044.58c.241.241.3.041.241-.284S1346.268,369.113,1345.549,369.107Z" transform="translate(-1290.437 -362.66)" fill="#b3b3b3"/>
        <path id="Trazado_421" data-name="Trazado 421" d="M1348.078,377.914a1.151,1.151,0,0,1-.459-.638c-.093-.308-.3-.267-.4.084s-.389-.047-.658.226c-.23.223-.056.25.31.314a1.955,1.955,0,0,1,.917.473c.435.3.447.5.838.363S1348.289,378.1,1348.078,377.914Z" transform="translate(-1292.664 -369.599)" fill="#b3b3b3"/>
        <path id="Trazado_422" data-name="Trazado 422" d="M1384.3,382.877a2.409,2.409,0,0,1-.6-.589c-.261-.3-.322-.183-.38.015-.043.13.006.13.276.229s.023.435.1.656.4,0,.711.014S1384.51,382.975,1384.3,382.877Z" transform="translate(-1322.814 -373.721)" fill="#b3b3b3"/>
        <path id="Trazado_423" data-name="Trazado 423" d="M1393.341,380.973a3.034,3.034,0,0,0-.742-.647c-.343-.206-.76-.163-.735-.035.056.3.325.36.6.479s.255-.209.3.142.43.572.665.851.3.229.5.136.066-.377-.284-.407S1393.593,381.248,1393.341,380.973Z" transform="translate(-1329.814 -372.148)" fill="#b3b3b3"/>
        <path id="Trazado_424" data-name="Trazado 424" d="M1377.261,392.245c-.2.16-.091.595-.235.754s-.4.02-.3.278.139.1.185.63.046.946.214.893.021-.969.1-1.212.215-.079.372-.151,0-.549.031-.789.218-.209.557-.163.253.236.473.183.035-.2-.067-.418-.168-.275-.294-.116a.431.431,0,0,1-.553.084C1377.519,392.12,1377.452,392.08,1377.261,392.245Z" transform="translate(-1317.409 -381.854)" fill="#b3b3b3"/>
        <path id="Trazado_425" data-name="Trazado 425" d="M1367.484,399.474c.247.035.385.072.337-.038a.915.915,0,0,0-.49-.414c-.32-.143-.473.04-.5.195C1366.774,399.483,1367.239,399.442,1367.484,399.474Z" transform="translate(-1309.33 -387.518)" fill="#b3b3b3"/>
        <path id="Trazado_426" data-name="Trazado 426" d="M1354.2,399.807c.146-.163.261-.609.152-.6s-.2-.038-.265.052C1353.99,399.389,1354.045,399.963,1354.2,399.807Z" transform="translate(-1298.867 -387.706)" fill="#b3b3b3"/>
        <path id="Trazado_427" data-name="Trazado 427" d="M1359.535,404.017a1.654,1.654,0,0,0-.635-.241c-.293-.1-.293-.243-.426-.159-.11.072-.1.139.145.3s.029.173.108.412.139.145.365.206.031.261.114.542.392.314.655.282.177-.115.229-.36a5.268,5.268,0,0,1,.206-.583c.1-.287.209-.25.58-.4s.1-.29-.087-.415-.5.134-.675.34S1359.923,404.24,1359.535,404.017Z" transform="translate(-1302.439 -391.287)" fill="#b3b3b3"/>
        <path id="Trazado_428" data-name="Trazado 428" d="M1336.445,419.965a2.378,2.378,0,0,1-1.456-.026,2.522,2.522,0,0,0-1.445.108c-.664.159-.853.525-.492.458a5.447,5.447,0,0,1,1.05.067,3.836,3.836,0,0,0,.766.122c.4.006.139.168.412.223s.032.307.255.429a3.558,3.558,0,0,0,1.543-.04c.371-.108.748-.25.923-.3s.1-.267.165-.36.443-.02.322-.276-.169-.125-.459-.246-.524.156-.7.36-.27-.116-.462-.33S1336.609,419.805,1336.445,419.965Z" transform="translate(-1281.549 -404.618)" fill="#b3b3b3"/>
        <path id="Trazado_429" data-name="Trazado 429" d="M1326.941,419.3c-.061.16.363.139.389.25a.355.355,0,0,0,.389.183c.174-.032.011-.243-.087-.435S1327,419.148,1326.941,419.3Z" transform="translate(-1276.691 -404.046)" fill="#b3b3b3"/>
        <path id="Trazado_430" data-name="Trazado 430" d="M1324.559,421.047a2.431,2.431,0,0,0-.267.035c-.06.11-.058.261.145.211S1324.669,421.042,1324.559,421.047Z" transform="translate(-1274.501 -405.582)" fill="#b3b3b3"/>
        <path id="Trazado_431" data-name="Trazado 431" d="M1329.532,396.347c-.354-.029-.4.107-.768.211s-.339.224-.27.447c.049.177.87.076,1.067-.107s.087-.444.3-.188.612.195.812.186.142.082.13.345.171.388.319.3-.059-.328.209-.362.264-.145.186-.232a3.742,3.742,0,0,0-.9-.417A4.4,4.4,0,0,0,1329.532,396.347Z" transform="translate(-1277.931 -385.369)" fill="#b3b3b3"/>
        <path id="Trazado_432" data-name="Trazado 432" d="M1325.953,437.66a.434.434,0,0,0,.223.255c.3.133.2-.418.4-.559s.237-.16.159-.378-.339-.1-.595.177S1325.857,437.392,1325.953,437.66Z" transform="translate(-1275.845 -418.527)" fill="#b3b3b3"/>
        <path id="Trazado_433" data-name="Trazado 433" d="M1331.811,437.091c-.006.085-.018.115.193.171s.134-.119.128-.317S1331.85,436.917,1331.811,437.091Z" transform="translate(-1280.678 -418.516)" fill="#b3b3b3"/>
        <path id="Trazado_434" data-name="Trazado 434" d="M1332.746,435.5c.221-.178.276-.181.337-.38s.148-.006.336.035.122-.1.1-.217-.433-.064-.439-.148-.093-.191-.279-.186-.243.232-.1.223c.07,0,.116.229.009.409a.814.814,0,0,1-.34.38.4.4,0,0,0-.27.345c-.043.2-.008.143.128.136s.2-.107.346-.194S1332.52,435.675,1332.746,435.5Z" transform="translate(-1280.906 -416.676)" fill="#b3b3b3"/>
        <path id="Trazado_435" data-name="Trazado 435" d="M1327.99,443.981c-.149.058-.369.232-.365.41s.113.382.223.243a3.093,3.093,0,0,0,.188-.323c.09-.133.241-.186.34-.279S1328.271,443.868,1327.99,443.981Z" transform="translate(-1277.256 -424.301)" fill="#b3b3b3"/>
      </g>
    </g>
    <g id="Grupo_94" data-name="Grupo 94" transform="translate(44.754 0)">
      <g id="Grupo_93" data-name="Grupo 93" transform="translate(0 0)">
        <path id="Trazado_436" data-name="Trazado 436" d="M541.792,344.225h1.035V337.7h-1.035v-.909h3.621a4.851,4.851,0,0,1,1.54.174,2.117,2.117,0,0,1,1.456,2.166,2.271,2.271,0,0,1-1.729,2.346v.026a.942.942,0,0,1,.353.391l1.184,2.055c.131.227.284.274.58.274h.252v.923h-.711c-.711,0-.876-.127-1.163-.63l-1.288-2.281a.8.8,0,0,0-.879-.463h-.992v2.451h1.033v.923h-3.258Zm3.9-3.42a1.443,1.443,0,0,0,1.52-1.577,1.284,1.284,0,0,0-.787-1.315,2.865,2.865,0,0,0-1.024-.15h-1.386v3.043Z" transform="translate(-541.792 -336.645)" fill="#b3b3b3"/>
        <path id="Trazado_437" data-name="Trazado 437" d="M587.2,344.225h1.038V337.7H587.2v-.909h6.047v1.939h-1.033v-.969h-2.79v2.683h2.958v.976h-2.958v2.757h2.99v-1.006h1.036v1.976H587.2Z" transform="translate(-578.947 -336.645)" fill="#b3b3b3"/>
        <path id="Trazado_438" data-name="Trazado 438" d="M629.467,341.977v.617c0,.615.794.979,1.671.979.958,0,1.653-.448,1.653-1.277,0-.972-.98-1.291-2.013-1.694-1.1-.412-2.222-.886-2.222-2.366,0-1.574,1.265-2.253,2.675-2.253,1.255,0,2.535.474,2.535,1.385v.984h-1.1v-.579c0-.485-.746-.746-1.43-.746-.816,0-1.468.378-1.468,1.147,0,.89.841,1.181,1.773,1.54,1.239.463,2.451.937,2.451,2.484,0,1.6-1.306,2.428-2.849,2.428-1.305,0-2.758-.582-2.758-1.776v-.876Z" transform="translate(-612.636 -335.984)" fill="#b3b3b3"/>
        <path id="Trazado_439" data-name="Trazado 439" d="M666.391,344.225h1.056v-6.463H665.48v1.3h-1.03v-2.27h7.174v2.27H670.6v-1.3h-1.969v6.463h1.058v.923h-3.295Z" transform="translate(-642.149 -336.645)" fill="#b3b3b3"/>
        <path id="Trazado_440" data-name="Trazado 440" d="M703.286,344.225h.8l2.66-7.433h1.343l2.663,7.433h.806v.923h-2.9v-.923h.888l-.651-1.86h-2.962l-.652,1.86h.9v.923h-2.9Zm5.314-2.8-1.024-2.9a3.157,3.157,0,0,1-.134-.638h-.038a3.675,3.675,0,0,1-.139.638l-1.032,2.9Z" transform="translate(-673.924 -336.645)" fill="#b3b3b3"/>
        <path id="Trazado_441" data-name="Trazado 441" d="M750.485,337.7h-1.059v-.909h3.3v.909h-1.05v4.32a2.631,2.631,0,0,0,.316,1.362,2.036,2.036,0,0,0,1.8.85,2.015,2.015,0,0,0,1.8-.872,2.651,2.651,0,0,0,.319-1.352V337.7h-1.056v-.909h3.281v.909H757.09v4.333a3.579,3.579,0,0,1-.574,2.037,3.26,3.26,0,0,1-2.727,1.219,3.34,3.34,0,0,1-2.747-1.219,3.4,3.4,0,0,1-.557-2.037Z" transform="translate(-711.675 -336.645)" fill="#b3b3b3"/>
        <path id="Trazado_442" data-name="Trazado 442" d="M802.844,344.225h1.041V337.7h-1.041v-.909h3.62a4.879,4.879,0,0,1,1.538.174,2.126,2.126,0,0,1,1.459,2.166,2.265,2.265,0,0,1-1.729,2.346v.026a.985.985,0,0,1,.354.391l1.183,2.055c.13.227.284.274.577.274h.252v.923h-.7c-.714,0-.885-.127-1.166-.63l-1.291-2.281c-.209-.358-.368-.463-.876-.463h-.994v2.451H806.1v.923h-3.252Zm3.907-3.42a1.443,1.443,0,0,0,1.512-1.577,1.285,1.285,0,0,0-.784-1.315,2.908,2.908,0,0,0-1.033-.15h-1.38v3.043Z" transform="translate(-755.381 -336.645)" fill="#b3b3b3"/>
        <path id="Trazado_443" data-name="Trazado 443" d="M845.84,344.225h.8l2.662-7.433h1.338l2.668,7.433h.8v.923h-2.9v-.923h.891l-.656-1.86h-2.959l-.653,1.86h.905v.923h-2.9Zm5.311-2.8-1.018-2.9a3.2,3.2,0,0,1-.138-.638h-.035a3.9,3.9,0,0,1-.142.638l-1.03,2.9Z" transform="translate(-790.559 -336.645)" fill="#b3b3b3"/>
        <path id="Trazado_444" data-name="Trazado 444" d="M895.537,344.225h1.045V337.7h-1.045v-.909h2.214l4.1,5.986a5.111,5.111,0,0,1,.287.606h.038a5.951,5.951,0,0,1-.061-.675V337.7h-1.061v-.909h3.3v.909H903.3v7.446h-1.161l-4.107-5.99a3.268,3.268,0,0,1-.285-.6h-.032a5.263,5.263,0,0,1,.046.674v5h1.074v.923h-3.3Z" transform="translate(-831.22 -336.645)" fill="#b3b3b3"/>
        <path id="Trazado_445" data-name="Trazado 445" d="M950.513,344.225h1.05v-6.463h-1.955v1.3h-1.036v-2.27h7.174v2.27h-1.033v-1.3h-1.967v6.463H953.8v.923h-3.289Z" transform="translate(-874.613 -336.645)" fill="#b3b3b3"/>
        <path id="Trazado_446" data-name="Trazado 446" d="M993.356,344.225H994.4V337.7h-1.047v-.909h6.05v1.939h-1.023v-.969H995.59v2.683h2.958v.976H995.59v2.757h2.991v-1.006h1.03v1.976h-6.255Z" transform="translate(-911.255 -336.645)" fill="#b3b3b3"/>
      </g>
    </g>
  </g>
</svg>
