<svg id="metlife-1" xmlns="http://www.w3.org/2000/svg" width="245.202" height="52.719" viewBox="0 0 245.202 52.719">
  <path id="Trazado_243" data-name="Trazado 243" d="M142.74,0a12.259,12.259,0,0,0-3.721.832A46.436,46.436,0,0,0,120.88,12.579l-3.808,4.494,1.468,2.1a47.94,47.94,0,0,1,6.381,14.635,31.813,31.813,0,0,1,1.177,7.7c.021.5.046,1.036.058,1.62s.024,1.2.029,1.882c.027,3.6.071,7.7-.305,7.7h17.951l1.018-1.036c.633-.907.727-4.111.727-25.52,0-22.132-.075-24.573-.77-25.345A2.58,2.58,0,0,0,142.74,0Z" transform="translate(-88.366 -0.001)" fill="#b3b3b3" opacity="0.721"/>
  <path id="Trazado_244" data-name="Trazado 244" d="M2.951,0A2.862,2.862,0,0,0,.843.729C.039,1.459,0,2.864,0,26.074c0,21.482.093,24.7.727,25.608l.727,1.036H19.3c13.779,0,17.933-.133,18.212-.584a40.843,40.843,0,0,0,.305-7.121c-.042-5.433-.255-7.325-1.265-11.206A45.907,45.907,0,0,0,24.193,11.956,49.38,49.38,0,0,0,6.556.831,12.436,12.436,0,0,0,2.951,0Z" transform="translate(0 0.001)" fill="#b3b3b3" opacity="0.721"/>
  <path id="Trazado_245" data-name="Trazado 245" d="M88.379,69.62l-1.134,1.373c-2.015,2.465-5.69,10.637-6.919,15.379-1,3.877-1.215,5.765-1.25,11.22-.024,3.606-.088,7.675.276,7.675H97.186c.376,0,.333-4.109.305-7.7a39.371,39.371,0,0,0-1.265-11.206,47.906,47.906,0,0,0-6.375-14.631Z" transform="translate(-59.671 -52.549)" fill="#b3b3b3"/>
  <g id="Grupo_68" data-name="Grupo 68" transform="translate(74.855 8.376)">
    <path id="Trazado_246" data-name="Trazado 246" d="M446.148,34.16a10.254,10.254,0,0,0-6.7,2.422,8.722,8.722,0,0,0-3.242,6.362l-.319,2.407h-3.6v6.07H436v9.032a75.892,75.892,0,0,0,.305,9.338,13.31,13.31,0,0,0,3.721.307h3.416V51.421h5.581v-6.07h-5.581V43.8a3.392,3.392,0,0,1,4.04-3.473,11.681,11.681,0,0,1,2.515.54c.551.246,1.118-.254,2.195-1.912l1.468-2.247-1.047-.788a13.161,13.161,0,0,0-6.467-1.764ZM424.3,34.2c-3.636.19-5.451,5.688-1.86,7.646a3.581,3.581,0,0,0,4.68-.511,3.242,3.242,0,0,0,1.439-3.035,3.812,3.812,0,0,0-3.081-3.969A4,4,0,0,0,424.3,34.2Zm-84.578.847-3.779.131-3.765.131-4.171,7.7c-2.294,4.237-4.32,7.851-4.491,8.025s-2.294-3.344-4.724-7.821l-4.419-8.142-3.721.117-3.721.117L306.4,47.219c-.293,6.548-.667,14.376-.828,17.393l-.291,5.486H312.6l.305-5.953c.167-3.274.332-7.739.363-9.922.108-7.538.15-7.534,4.346-.058l3.706,6.6h3.91l3.649-6.887,3.634-6.887.349,8.171c.191,4.494.474,9.695.625,11.556l.262,3.386h7.369l-.014-2.218c-.006-1.22-.311-8.416-.683-15.992s-.677-14.461-.683-15.306l-.015-1.533Zm54.884.029v17.2c0,9.459.134,17.338.305,17.509a111.214,111.214,0,0,0,11.4.307H417.4V63.561H402.514V35.079h-7.906Zm-19.535,3.706v6.522l-1.977.131-1.977.146v5.6l1.977.146,1.977.146.014,6.158c.027,8.172.836,10.46,4.317,12.183,2.408,1.192,7.336.984,10.1-.423l2.3-1.167-1.4-2.276-1.4-2.276-2.02.744c-1.877.677-2.127.669-3.256-.073-1.214-.8-1.221-.833-1.221-6.858v-6.07h6.047v-6.07h-6l-.146-3.152-.131-3.152-3.6-.131-3.6-.132Zm-18.169,6a11.71,11.71,0,0,0-11.09,7.106,17.113,17.113,0,0,0,.131,11.95,11.949,11.949,0,0,0,6.555,5.983c4.14,1.475,11.447.647,14.768-1.678l1.264-.875-1.41-2.291-1.4-2.276-2.413,1.123a11.288,11.288,0,0,1-7.994.686c-1.568-.6-3.5-2.7-3.5-3.808,0-.812.536-.875,8.6-.875h8.6V57.579c0-7.648-4.927-12.842-12.123-12.8Zm.058,5.676a5.076,5.076,0,0,1,3.721,1.4,4.548,4.548,0,0,1,1.367,2.335c0,.923-.247.963-5.116.963-3.262,0-5.116-.169-5.116-.481a5.374,5.374,0,0,1,2.544-3.618,6.535,6.535,0,0,1,2.6-.6Zm106.613-5.647c-7.253,0-12.063,4.471-12.573,11.7-.422,5.991,1.755,10.247,6.468,12.636,2.817,1.428,3.158,1.486,7.384,1.328,3.7-.139,4.872-.383,7.093-1.474a8.939,8.939,0,0,0,2.66-1.649,13.775,13.775,0,0,0-1.381-2.524l-1.381-2.188-1.657.992c-2.215,1.312-7,1.714-8.867.744a6.085,6.085,0,0,1-3.2-3.5l-.32-1.05h17.819l-.32-2.452c-1.094-8.567-4.823-12.562-11.729-12.562Zm-.363,5.676a4.173,4.173,0,0,1,3.445,1.284,6.821,6.821,0,0,1,1.672,2.334c.3,1.047.275,1.051-5.116,1.051s-5.416,0-5.116-1.05a6.826,6.826,0,0,1,1.672-2.335,4.174,4.174,0,0,1,3.445-1.284ZM428.1,45.322l-3.6.131-3.6.131-.131,11.673c-.068,6.415-.023,11.931.1,12.257.155.406,1.335.584,3.735.584h3.5V45.322Z" transform="translate(-305.277 -34.16)" fill="#b3b3b3"/>
  </g>
</svg>
