<svg id="the-walking-dead" xmlns="http://www.w3.org/2000/svg" width="236.271" height="53.224" viewBox="0 0 236.271 53.224">
  <g id="Grupo_69" data-name="Grupo 69" transform="translate(2.917 16.344)">
    <path id="Trazado_249" data-name="Trazado 249" d="M22.1,78.212l.234-.025a1.02,1.02,0,0,0,.069.325.626.626,0,0,0,.193.178q.151.1.776.455l1.441.82,1-.739q.126-.1.448-.376a3.771,3.771,0,0,0,.483-.484.419.419,0,0,0,.077-.153,2.017,2.017,0,0,0-.021-.4L27,77.789l.281,1.017a1.158,1.158,0,0,1-.214.278,7.008,7.008,0,0,1-.683.547l-.969.706a16.525,16.525,0,0,0,1.813.942l.284-.03q.027.384.042.526t.06.427l-.216.023a1.778,1.778,0,0,0-.056-.277.406.406,0,0,0-.055-.1,1.144,1.144,0,0,0-.208-.167q-.158-.109-.644-.394-.449-.264-.9-.524l-.385-.226-1.81,1.409a3.9,3.9,0,0,0-.466.4.249.249,0,0,0-.065.125,1.566,1.566,0,0,0,.011.3l-.234.025q-.017-.262-.042-.522t-.071-.527q.286-.239.585-.461l1.492-1.1-.686-.381a10.285,10.285,0,0,0-1.412-.661l-.256.02q-.016-.25-.039-.5-.029-.227-.064-.454Zm1.4,7.807-.267-.086a3.292,3.292,0,0,1-.242-.336,2.245,2.245,0,0,1-.167-.367,1.937,1.937,0,0,1-.1-.446,1.836,1.836,0,0,1,.1-.868,1.387,1.387,0,0,1,.52-.653,1.887,1.887,0,0,1,.887-.308,2.283,2.283,0,0,1,.748.033,1.4,1.4,0,0,1,.511.2,1.832,1.832,0,0,1,.295.291,2.245,2.245,0,0,1,.278.4,1.561,1.561,0,0,1,.182.594,1.442,1.442,0,0,1-.1.738,1.112,1.112,0,0,1-.442.522,1.629,1.629,0,0,1-.689.225,1.967,1.967,0,0,1-.243.008,3.8,3.8,0,0,1-.113-.45q-.069-.379-.11-.761l-.122-1.136a1.8,1.8,0,0,0-.8.264,1.074,1.074,0,0,0-.415.514,1.365,1.365,0,0,0-.083.631,1.4,1.4,0,0,0,.116.423,2.821,2.821,0,0,0,.314.5l-.054.063Zm1.2-2.428q0,.1.019.378.039.53.06.729.051.472.085.618l.132-.01a1.245,1.245,0,0,0,.8-.315.764.764,0,0,0,.2-.634.811.811,0,0,0-.357-.614A1.408,1.408,0,0,0,24.7,83.591ZM23.1,87.947l.477-.2,1.061-.447q.447-.187.888-.388a3.171,3.171,0,0,0,.49-.25.266.266,0,0,0,.084-.127,1.563,1.563,0,0,0,.017-.344l.2-.022q.017.393.065.839.051.475.12.884l-.2.022a2.759,2.759,0,0,0-.071-.426.167.167,0,0,0-.062-.092.134.134,0,0,0-.09-.02,2.422,2.422,0,0,0-.426.15l-1.106.452q-.3.123-.6.265l.645.2,1.222.4q.434.14.874.258l.019.174q-.623.3-.823.411L24.9,90.2l-.745.4.728.191q.7.186,1.192.28a1.459,1.459,0,0,0,.375.042.158.158,0,0,0,.136-.085,1.319,1.319,0,0,0,0-.465l.2-.022q.033.541.055.747.026.249.1.672l-.2.022a.793.793,0,0,0-.067-.273.308.308,0,0,0-.125-.112,3.428,3.428,0,0,0-.6-.226l-.927-.277-.415-.116q-.374-.1-.75-.2a4.039,4.039,0,0,0-.463-.1l-.035-.333.425-.217L25.731,89.1l-.77-.261-.933-.3q-.272-.09-.549-.167l-.339-.082Zm2.184,4.6A1.735,1.735,0,0,1,27.28,94.15a1.614,1.614,0,0,1-1.5,1.86,1.915,1.915,0,0,1-.973-.139,1.724,1.724,0,0,1-.745-.608,1.97,1.97,0,0,1-.347-.941,1.6,1.6,0,0,1,.063-.712,1.391,1.391,0,0,1,.3-.5,1.668,1.668,0,0,1,.4-.316A2.115,2.115,0,0,1,25.288,92.543Zm.335.642a2.909,2.909,0,0,0-.872.241,1.3,1.3,0,0,0-.613.491.977.977,0,0,0-.144.62.871.871,0,0,0,.4.653,1.541,1.541,0,0,0,1.034.169,2.626,2.626,0,0,0,.957-.27,1.21,1.21,0,0,0,.533-.482,1.006,1.006,0,0,0,.108-.582.893.893,0,0,0-.392-.673,1.5,1.5,0,0,0-1.012-.166Zm-1.549,3.423.2-.022c.034.267.054.413.061.433a.214.214,0,0,0,.044.087.16.16,0,0,0,.071.041.769.769,0,0,0,.26.015l.991-.089.422-.045q.3-.033.609-.076a.8.8,0,0,0,.245-.057.141.141,0,0,0,.05-.088,2.676,2.676,0,0,0-.034-.465l.2-.022a3.768,3.768,0,0,0,.371,1.018.283.283,0,0,1,.046.092.047.047,0,0,1-.014.041.081.081,0,0,1-.052.02.447.447,0,0,1-.057,0c-.146,0-.369.021-.672.051.135.093.266.178.4.255a1.8,1.8,0,0,1,.255.17.866.866,0,0,1,.174.229.772.772,0,0,1,.085.281.734.734,0,0,1-.032.3l-.047.026q-.418,0-.836.029l-.017-.16a.638.638,0,0,0,.228-.216.452.452,0,0,0,.049-.279.591.591,0,0,0-.275-.44,1.026,1.026,0,0,0-.7-.119l-.365.039q-.234.025-.852.11a1.8,1.8,0,0,0-.278.048.214.214,0,0,0-.083.046.174.174,0,0,0-.036.081,3.815,3.815,0,0,0,0,.581l-.2.022q-.042-.626-.089-1.066T24.073,96.607Zm.309,2.882.2-.022.039.333a.267.267,0,0,0,.04.115.161.161,0,0,0,.065.056.628.628,0,0,0,.257.019q.51-.039,1.019-.085l1.47-.158q.592-.064,1.22-.149a2.338,2.338,0,0,0,.47-.09.1.1,0,0,0,.044-.062,2.354,2.354,0,0,0-.028-.5l.209-.022a4.083,4.083,0,0,0,.367,1.087.2.2,0,0,1,.029.068.05.05,0,0,1-.012.041.064.064,0,0,1-.043.019.423.423,0,0,1-.072,0l-.117.009q-.636.051-1.083.1l-.554.052-1.838.2q-.5.059-.993.125a.679.679,0,0,0-.254.07.142.142,0,0,0-.05.049.221.221,0,0,0-.028.089c0,.017.01.15.032.4l-.2.022q-.022-.426-.066-.85-.054-.457-.124-.911Zm1.095,5.007-.268-.086a3.435,3.435,0,0,1-.242-.336,2.267,2.267,0,0,1-.166-.368,1.943,1.943,0,0,1-.1-.447,1.839,1.839,0,0,1,.1-.868,1.382,1.382,0,0,1,.52-.653,1.884,1.884,0,0,1,.887-.309,2.289,2.289,0,0,1,.748.033,1.4,1.4,0,0,1,.511.2,1.828,1.828,0,0,1,.295.291,2.261,2.261,0,0,1,.278.4,1.581,1.581,0,0,1,.182.594,1.447,1.447,0,0,1-.1.737,1.11,1.11,0,0,1-.442.523,1.634,1.634,0,0,1-.689.225,2.2,2.2,0,0,1-.243.008,3.823,3.823,0,0,1-.113-.45q-.069-.378-.11-.761L26.4,102.1a1.8,1.8,0,0,0-.8.264,1.073,1.073,0,0,0-.414.514,1.359,1.359,0,0,0,.033,1.054,2.818,2.818,0,0,0,.315.5l-.055.062Zm1.2-2.428q0,.1.019.378.038.53.06.728.051.472.084.618l.131-.011a1.246,1.246,0,0,0,.8-.315.764.764,0,0,0,.2-.634.809.809,0,0,0-.357-.614A1.413,1.413,0,0,0,26.682,102.068ZM25,105.361c.3,0,.49-.009.569-.015q.453-.034.9-.075l1.576-.17q.611-.066,1.22-.149a2.357,2.357,0,0,0,.47-.09.1.1,0,0,0,.044-.063,2.351,2.351,0,0,0-.028-.495l.209-.023a4.066,4.066,0,0,0,.367,1.086.191.191,0,0,1,.029.069.051.051,0,0,1-.012.041.067.067,0,0,1-.043.019.451.451,0,0,1-.071,0l-.117.009q-.636.051-1.082.095l-.553.052-.7.075.531.438a1.046,1.046,0,0,1,.194.3,1.393,1.393,0,0,1,.128.459,1.314,1.314,0,0,1-.108.711,1.2,1.2,0,0,1-.467.518,1.675,1.675,0,0,1-.72.24,1.881,1.881,0,0,1-.6-.029,2.086,2.086,0,0,1-.526-.183,1,1,0,0,1-.246-.156l-.428-.477a2.251,2.251,0,0,1-.352-.461,1.333,1.333,0,0,1-.114-.447,1.473,1.473,0,0,1,.016-.447,1.616,1.616,0,0,1,.177-.453l-.3-.258.034-.121Zm2.357.414-1.329.143a.8.8,0,0,0-.225.044.4.4,0,0,0-.118.133,1.194,1.194,0,0,0-.161.367,1.177,1.177,0,0,0-.03.425.911.911,0,0,0,.482.748,1.686,1.686,0,0,0,1.011.171,1.636,1.636,0,0,0,.681-.206.949.949,0,0,0,.381-.407.981.981,0,0,0,.084-.533,1.006,1.006,0,0,0-.258-.582.925.925,0,0,0-.519-.3Zm.973,2.986.2-.022a3.724,3.724,0,0,0,.422,1.124l-.048.084q-.758.053-1.159.1l-.645.069q-.92.116-.994.128a.734.734,0,0,0-.255.067.194.194,0,0,0-.05.052.219.219,0,0,0-.028.089c0,.014.01.146.032.395l-.2.022q-.024-.433-.068-.864-.03-.284-.125-.926l.2-.021.04.338a.258.258,0,0,0,.039.113.166.166,0,0,0,.065.056.648.648,0,0,0,.257.023l1.019-.092.624-.067a2.951,2.951,0,0,0,.623-.1.148.148,0,0,0,.072-.085,2.017,2.017,0,0,0-.024-.475Zm2.167.642a.381.381,0,0,1-.087.294.391.391,0,0,1-.271.146.4.4,0,0,1-.44-.354.389.389,0,0,1,.087-.3.384.384,0,0,1,.268-.147.4.4,0,0,1,.443.357Z" transform="translate(-22.097 -77.789)" fill="none"/>
  </g>
  <path id="Trazado_250" data-name="Trazado 250" d="M10,68.965h9.717l1.372,15.1,1.427-15.1H30.97l1.427,15.1,1.372-15.1h8.07l-4.666,38.428H27.622l-1.7-15.481-1.7,15.481H14.666Zm52.1,38.428H52.93l-.439-4.776H48.428l-.384,4.776h-8.07l5.05-38.428H57.046L62.1,107.393ZM49.142,94.822h2.635L50.459,79.835ZM72.307,68.965V99.433H78.73v7.96H62.974V68.965ZM91.52,107.393,89.269,91.528v15.865H79.937V68.965h9.332v16.36L91.9,68.965h9.388L97.723,87.52l3.459,19.873Zm19.818,0H102V68.965h9.333ZM125.5,68.965h7.685v38.428h-8.564l-3.678-15.316L121,107.393h-7.685V68.965h8.948L125.556,82.8ZM145.373,93.23V85.709h10.485V99.488c0,5.544-2.69,8.234-8.234,8.234h-4.392c-5.544,0-8.234-2.69-8.234-8.234V76.87c0-5.545,2.69-8.234,8.234-8.234h4.282c5.544,0,8.234,2.69,8.234,8.234v6.807h-9.222V77.035c0-.494-.22-.714-.769-.714h-.714c-.494,0-.713.22-.713.714V99.268c0,.549.22.769.713.769h.879c.494,0,.714-.22.714-.714V93.23h-1.263Zm17.511-24.265h11.363c6.313,0,9.333,3.019,9.333,9.332V98.06c0,6.313-3.019,9.333-9.333,9.333H162.884Zm9.332,30.742h.989c.714,0,1.043-.329,1.043-1.1V77.694a.907.907,0,0,0-1.043-1.043h-.989Zm29.644-30.742v7.96h-7.137v7.027h6.862v7.96h-6.862v7.521h7.246v7.96H185.391V68.965ZM224.7,107.393H215.53l-.439-4.776h-4.063l-.385,4.776h-8.07l5.05-38.428h12.022ZM211.742,94.822h2.635l-1.318-14.987-1.318,14.987Zm13.833-25.856h11.364c6.314,0,9.333,3.019,9.333,9.332V98.06c0,6.313-3.019,9.333-9.333,9.333H225.575Zm9.332,30.742h.988c.714,0,1.043-.329,1.043-1.1V77.694a.908.908,0,0,0-1.043-1.043h-.988Z" transform="translate(-10 -54.499)" fill="#b3b3b3"/>
  <g id="Grupo_70" data-name="Grupo 70" transform="translate(32.018 0)">
    <path id="Trazado_251" data-name="Trazado 251" d="M144.6,22.008V11.269h-1.8V10h4.975v1.269h-1.8V22.008H144.6Zm7.685-6.776V10h1.372V22.008h-1.372V16.519h-2.23v5.489h-1.372V10h1.372v5.232ZM158.821,10v1.269h-2.4v3.98h2.316V16.5h-2.316v4.237h2.436v1.27h-3.809V10Z" transform="translate(-142.798 -10)" fill="#b3b3b3"/>
  </g>
</svg>
