<svg xmlns="http://www.w3.org/2000/svg" width="24.962" height="15.602" viewBox="0 0 24.962 15.602">
  <path id="Trazado_133" data-name="Trazado 133" d="M11.454,97.623a3.837,3.837,0,0,1,.707,2.323,3.358,3.358,0,0,1-.713,2.242,3.744,3.744,0,0,1-1.178.864,3.467,3.467,0,0,1,1.783,1.343,3.992,3.992,0,0,1,.6,2.23,4.4,4.4,0,0,1-.688,2.426,4.219,4.219,0,0,1-1.092,1.2,4.287,4.287,0,0,1-1.743.765,10.868,10.868,0,0,1-2.18.2H0V96H7.455A4.761,4.761,0,0,1,11.454,97.623Zm-8.378,1.02V102H6.826a3.147,3.147,0,0,0,1.632-.378,1.433,1.433,0,0,0,.627-1.336,1.365,1.365,0,0,0-.828-1.407,5.92,5.92,0,0,0-1.824-.237Zm0,5.876v4.058H6.821a3.677,3.677,0,0,0,1.563-.268,1.913,1.913,0,0,0,1.014-1.9,1.632,1.632,0,0,0-.981-1.634,3.963,3.963,0,0,0-1.545-.256Zm18.9-4.325a4.593,4.593,0,0,1,1.969,1.665,5.429,5.429,0,0,1,.911,2.326,14.32,14.32,0,0,1,.1,2.234H16.648a2.688,2.688,0,0,0,1.2,2.373,3.058,3.058,0,0,0,1.646.424,2.549,2.549,0,0,0,1.654-.515,2.456,2.456,0,0,0,.615-.774H24.8a3.692,3.692,0,0,1-1.1,2.035,5.592,5.592,0,0,1-4.292,1.64,6.261,6.261,0,0,1-4.018-1.384q-1.746-1.383-1.743-4.5a6.053,6.053,0,0,1,1.571-4.487,5.554,5.554,0,0,1,4.078-1.56A6.518,6.518,0,0,1,21.979,100.194Zm-4.461,2.542a3.05,3.05,0,0,0-.8,1.741h5.141a2.461,2.461,0,0,0-.794-1.78,2.648,2.648,0,0,0-1.771-.605A2.4,2.4,0,0,0,17.518,102.736ZM15.952,98.6h6.611V96.71H15.952V98.6Z" transform="translate(0 -96)" fill="#fff"/>
</svg>
