<?xml version="1.0" encoding="utf-8"?>
<!-- Generator: Adobe Illustrator 24.0.0, SVG Export Plug-In . SVG Version: 6.00 Build 0)  -->
<svg version="1.1" id="Capa_1" xmlns="http://www.w3.org/2000/svg" xmlns:xlink="http://www.w3.org/1999/xlink" x="0px" y="0px"
	 viewBox="0 0 7.7 15.5" style="enable-background:new 0 0 7.7 15.5;" xml:space="preserve">
<style type="text/css">
	.st0{fill:#393E43;}
</style>
<g id="Grupo_35" transform="translate(0)">
	<path id="Trazado_137" class="st0" d="M6.3,2.6h1.4V0.1C7.1,0,6.4,0,5.7,0c-2,0-3.4,1.3-3.4,3.6v2.2H0v2.8h2.2v6.9H5V8.6h2.2
		l0.3-2.8H5V3.9C5,3.1,5.2,2.6,6.3,2.6L6.3,2.6z"/>
</g>
</svg>
